Test,Number,Emotion,Strength,Multiple,Quadrant,Index,Emotion,Emotion_w_strength
19,1,Interest,4,_,_,_,5,104
19,1,Disgust,4,_,_,_,9,184
19,1,Regret,3,_,_,_,13,263
19,1,Contentment,5,_,_,_,20,405
19,1,Disappointment,5,_,_,_,11,225
19,1,Contempt,4,_,_,_,8,164
19,1,Fear,3,_,_,_,10,203
19,2,Fear,5,_,_,_,10,205
19,2,Contentment,5,_,_,_,20,405
19,2,Interest,4,_,_,_,5,104
19,2,Sadness,5,_,_,_,15,305
19,2,Anger,5,_,_,_,6,125
19,2,Joy,5,_,_,_,2,45
19,2,None,0,_,_,_,0,0
19,2,Disgust,5,_,_,_,9,185
19,2,Amusement,6,_,_,_,4,86
