Test,Number,Emotion,Strength,Multiple,Quadrant,Index,Emotion,Emotion_w_strength
41,1,Fear,2,_,_,_,10,202
41,1,Disgust,3,_,_,_,9,183
41,1,Disappointment,3,_,_,_,11,223
41,1,Joy,4,_,_,_,2,44
41,1,Guilt,3,_,_,_,14,283
41,1,Anger,4,_,_,_,6,124
41,1,Fear,5,_,_,_,10,205
41,2,Anger,5,_,_,_,6,125
41,2,Joy,5,_,_,_,2,45
41,2,Joy,6,_,_,_,2,46
41,2,confusion,,_,_,_,,
41,2,Fear,5,_,_,_,10,205
41,2,Interest,4,_,_,_,5,104
41,2,Contempt,4,_,_,_,8,164
41,2,Disappointment,4,_,_,_,11,224
41,2,Pleasure,4,_,_,_,1,24
41,2,Anger,6,_,_,_,6,126
41,2,Sadness,6,_,_,_,15,306
41,2,Love,4,_,_,_,19,384
