Test,Number,Emotion,Strength,Multiple,Quadrant,Index,Emotion,Emotion_w_strength
15,1,Fear,3,_,_,_,10,203
15,1,Anger,3,_,_,_,6,123
15,1,Disappointment,4,_,_,_,11,224
15,1,Joy,4,_,_,_,2,44
15,1,Sadness,4,_,_,_,15,304
15,1,Contempt,4,_,_,_,8,164
15,1,Shame,3,_,_,_,12,243
15,2,Anger,5,_,_,_,6,125
15,2,Amusement,4,_,_,_,4,84
15,2,confusion,,_,_,_,,
15,2,Joy,6,_,_,_,2,46
15,2,Fear,5,_,_,_,10,205
15,2,Admiration,4,_,_,_,18,364
15,2,Shame,6,_,_,_,12,246
15,2,Joy,4,_,_,_,2,44
15,2,Guilt,3,_,_,_,14,283
