Test,Number,Emotion,Strength,Multiple,Quadrant,Index,Emotion,Emotion_w_strength
33,1,Disgust,4,_,_,_,9,184
33,1,Disgust,5,_,_,_,9,185
33,1,Shame,3,_,_,_,12,243
33,1,Joy,5,_,_,_,2,45
33,1,Sadness,5,_,_,_,15,305
33,1,Hate,5,_,_,_,7,145
33,1,Sadness,5,_,_,_,15,305
33,2,Regret,4,_,_,_,13,264
33,2,Sadness,6,_,_,_,15,306
33,2,Anger,6,_,_,_,6,126
33,2,Sadness,6,_,_,_,15,306
33,2,Interest,5,_,_,_,5,105
33,2,Joy,6,_,_,_,2,46
33,2,Regret,1,_,_,_,13,261
33,2,Contentment,6,_,_,_,20,406
33,2,Disappointment,4,_,_,_,11,224
