emotion_number,n,emotion_name,th_e,closest_matching_emotion,i_e,v_e_ep,v_e_e
1,33,Neutral,2.692,Disgust,1.3544,4.1937,3.4757
2,34,Sadness,4.5385,Guilt,5.3518,1.1415,1.1272
3,34,Fear,3.2645,Fear,4.9841,1.3931,1.3525
4,27,Disgust,3.8362,Amusement,2.6341,3.1972,2.7118
5,34,Anger,1.9113,Anger,5.6669,0.36885,0.37208
6,34,Joy,0.29371,Pleasure,3.2273,2.254,2.2159
7,34,Happiness,0.59937,Joy,4.6217,1.7222,1.7416
8,34,Awe,0.33363,Pleasure,3.1691,2.6715,2.6113
9,29,Surprise,1.8476,Anger,1.211,4.3526,4.1009
