<?xml version="1.0"?>
<!DOCTYPE svg PUBLIC '-//W3C//DTD SVG 1.0//EN'
          'http://www.w3.org/TR/2001/REC-SVG-20010904/DTD/svg10.dtd'>
<svg xmlns:xlink="http://www.w3.org/1999/xlink" style="fill-opacity:1; color-rendering:auto; color-interpolation:auto; text-rendering:auto; stroke:black; stroke-linecap:square; stroke-miterlimit:10; shape-rendering:auto; stroke-opacity:1; fill:black; stroke-dasharray:none; font-weight:normal; stroke-width:1; font-family:'Dialog'; font-style:normal; stroke-linejoin:miter; font-size:12px; stroke-dashoffset:0; image-rendering:auto;" width="560" height="420" xmlns="http://www.w3.org/2000/svg"
><!--Generated by the Batik Graphics2D SVG Generator--><defs id="genericDefs"
  /><g
  ><defs id="defs1"
    ><clipPath clipPathUnits="userSpaceOnUse" id="clipPath1"
      ><path d="M0 0 L560 0 L560 420 L0 420 L0 0 Z"
      /></clipPath
      ><font horiz-adv-x="60.009766" id="font1"
      ><font-face ascent="92.822266" descent="23.583984" units-per-em="100" style="font-style:normal; font-family:SansSerif; font-weight:normal;"
        /><missing-glyph horiz-adv-x="60.009766" d="M4.9844 -17.6719 L4.9844 70.5156 L54.9844 70.5156 L54.9844 -17.6719 L4.9844 -17.6719 ZM10.5938 -12.1094 L49.4219 -12.1094 L49.4219 64.8906 L10.5938 64.8906 L10.5938 -12.1094 Z"
        /><glyph unicode="1" horiz-adv-x="63.623047" d="M12.4062 8.2969 L28.5156 8.2969 L28.5156 63.9219 L10.9844 60.4062 L10.9844 69.3906 L28.4219 72.9062 L38.2812 72.9062 L38.2812 8.2969 L54.3906 8.2969 L54.3906 0 L12.4062 0 L12.4062 8.2969 Z"
        /><glyph unicode="2" horiz-adv-x="63.623047" d="M19.1875 8.2969 L53.6094 8.2969 L53.6094 0 L7.3281 0 L7.3281 8.2969 Q12.9375 14.1094 22.6328 23.8984 Q32.3281 33.6875 34.8125 36.5312 Q39.5469 41.8438 41.4297 45.5312 Q43.3125 49.2188 43.3125 52.7812 Q43.3125 58.5938 39.2344 62.2578 Q35.1562 65.9219 28.6094 65.9219 Q23.9688 65.9219 18.8203 64.3125 Q13.6719 62.7031 7.8125 59.4219 L7.8125 69.3906 Q13.7656 71.7812 18.9453 73 Q24.125 74.2188 28.4219 74.2188 Q39.75 74.2188 46.4844 68.5547 Q53.2188 62.8906 53.2188 53.4219 Q53.2188 48.9219 51.5391 44.8984 Q49.8594 40.875 45.4062 35.4062 Q44.1875 33.9844 37.6484 27.2188 Q31.1094 20.4531 19.1875 8.2969 Z"
        /><glyph unicode="3" horiz-adv-x="63.623047" d="M40.5781 39.3125 Q47.6562 37.7969 51.6328 33.0078 Q55.6094 28.2188 55.6094 21.1875 Q55.6094 10.4062 48.1875 4.4922 Q40.7656 -1.4219 27.0938 -1.4219 Q22.5156 -1.4219 17.6562 -0.5156 Q12.7969 0.3906 7.625 2.2031 L7.625 11.7188 Q11.7188 9.3281 16.6016 8.1094 Q21.4844 6.8906 26.8125 6.8906 Q36.0781 6.8906 40.9375 10.5469 Q45.7969 14.2031 45.7969 21.1875 Q45.7969 27.6406 41.2812 31.2734 Q36.7656 34.9062 28.7188 34.9062 L20.2188 34.9062 L20.2188 43.0156 L29.1094 43.0156 Q36.375 43.0156 40.2344 45.9219 Q44.0938 48.8281 44.0938 54.2969 Q44.0938 59.9062 40.1172 62.9141 Q36.1406 65.9219 28.7188 65.9219 Q24.6562 65.9219 20.0156 65.0391 Q15.375 64.1562 9.8125 62.3125 L9.8125 71.0938 Q15.4375 72.6562 20.3438 73.4375 Q25.25 74.2188 29.5938 74.2188 Q40.8281 74.2188 47.3672 69.1172 Q53.9062 64.0156 53.9062 55.3281 Q53.9062 49.2656 50.4375 45.0938 Q46.9688 40.9219 40.5781 39.3125 Z"
        /><glyph unicode="4" horiz-adv-x="63.623047" d="M37.7969 64.3125 L12.8906 25.3906 L37.7969 25.3906 L37.7969 64.3125 ZM35.2031 72.9062 L47.6094 72.9062 L47.6094 25.3906 L58.0156 25.3906 L58.0156 17.1875 L47.6094 17.1875 L47.6094 0 L37.7969 0 L37.7969 17.1875 L4.8906 17.1875 L4.8906 26.7031 L35.2031 72.9062 Z"
        /><glyph unicode="5" horiz-adv-x="63.623047" d="M10.7969 72.9062 L49.5156 72.9062 L49.5156 64.5938 L19.8281 64.5938 L19.8281 46.7344 Q21.9688 47.4688 24.1172 47.8281 Q26.2656 48.1875 28.4219 48.1875 Q40.625 48.1875 47.7578 41.5 Q54.8906 34.8125 54.8906 23.3906 Q54.8906 11.625 47.5625 5.1016 Q40.2344 -1.4219 26.9062 -1.4219 Q22.3125 -1.4219 17.5547 -0.6406 Q12.7969 0.1406 7.7188 1.7031 L7.7188 11.625 Q12.1094 9.2344 16.7969 8.0625 Q21.4844 6.8906 26.7031 6.8906 Q35.1562 6.8906 40.0859 11.3281 Q45.0156 15.7656 45.0156 23.3906 Q45.0156 31 40.0859 35.4453 Q35.1562 39.8906 26.7031 39.8906 Q22.75 39.8906 18.8203 39.0156 Q14.8906 38.1406 10.7969 36.2812 L10.7969 72.9062 Z"
        /><glyph unicode="6" horiz-adv-x="63.623047" d="M33.0156 40.375 Q26.375 40.375 22.4922 35.8359 Q18.6094 31.2969 18.6094 23.3906 Q18.6094 15.5312 22.4922 10.9609 Q26.375 6.3906 33.0156 6.3906 Q39.6562 6.3906 43.5312 10.9609 Q47.4062 15.5312 47.4062 23.3906 Q47.4062 31.2969 43.5312 35.8359 Q39.6562 40.375 33.0156 40.375 ZM52.5938 71.2969 L52.5938 62.3125 Q48.875 64.0625 45.0938 64.9922 Q41.3125 65.9219 37.5938 65.9219 Q27.8281 65.9219 22.6797 59.3281 Q17.5312 52.7344 16.7969 39.4062 Q19.6719 43.6562 24.0234 45.9219 Q28.375 48.1875 33.5938 48.1875 Q44.5781 48.1875 50.9531 41.5234 Q57.3281 34.8594 57.3281 23.3906 Q57.3281 12.1562 50.6875 5.3672 Q44.0469 -1.4219 33.0156 -1.4219 Q20.3594 -1.4219 13.6719 8.2734 Q6.9844 17.9688 6.9844 36.375 Q6.9844 53.6562 15.1875 63.9375 Q23.3906 74.2188 37.2031 74.2188 Q40.9219 74.2188 44.7031 73.4844 Q48.4844 72.75 52.5938 71.2969 Z"
        /><glyph unicode="7" horiz-adv-x="63.623047" d="M8.2031 72.9062 L55.0781 72.9062 L55.0781 68.7031 L28.6094 0 L18.3125 0 L43.2188 64.5938 L8.2031 64.5938 L8.2031 72.9062 Z"
        /><glyph unicode="8" horiz-adv-x="63.623047" d="M31.7812 34.625 Q24.75 34.625 20.7266 30.8594 Q16.7031 27.0938 16.7031 20.5156 Q16.7031 13.9219 20.7266 10.1562 Q24.75 6.3906 31.7812 6.3906 Q38.8125 6.3906 42.8672 10.1797 Q46.9219 13.9688 46.9219 20.5156 Q46.9219 27.0938 42.8984 30.8594 Q38.875 34.625 31.7812 34.625 ZM21.9219 38.8125 Q15.5781 40.375 12.0391 44.7266 Q8.5 49.0781 8.5 55.3281 Q8.5 64.0625 14.7266 69.1406 Q20.9531 74.2188 31.7812 74.2188 Q42.6719 74.2188 48.875 69.1406 Q55.0781 64.0625 55.0781 55.3281 Q55.0781 49.0781 51.5391 44.7266 Q48 40.375 41.7031 38.8125 Q48.8281 37.1562 52.8047 32.3203 Q56.7812 27.4844 56.7812 20.5156 Q56.7812 9.9062 50.3125 4.2422 Q43.8438 -1.4219 31.7812 -1.4219 Q19.7344 -1.4219 13.2578 4.2422 Q6.7812 9.9062 6.7812 20.5156 Q6.7812 27.4844 10.7891 32.3203 Q14.7969 37.1562 21.9219 38.8125 ZM18.3125 54.3906 Q18.3125 48.7344 21.8516 45.5625 Q25.3906 42.3906 31.7812 42.3906 Q38.1406 42.3906 41.7266 45.5625 Q45.3125 48.7344 45.3125 54.3906 Q45.3125 60.0625 41.7266 63.2344 Q38.1406 66.4062 31.7812 66.4062 Q25.3906 66.4062 21.8516 63.2344 Q18.3125 60.0625 18.3125 54.3906 Z"
        /><glyph unicode="9" horiz-adv-x="63.623047" d="M10.9844 1.5156 L10.9844 10.5 Q14.7031 8.7344 18.5078 7.8125 Q22.3125 6.8906 25.9844 6.8906 Q35.75 6.8906 40.8984 13.4531 Q46.0469 20.0156 46.7812 33.4062 Q43.9531 29.2031 39.6016 26.9531 Q35.25 24.7031 29.9844 24.7031 Q19.0469 24.7031 12.6719 31.3203 Q6.2969 37.9375 6.2969 49.4219 Q6.2969 60.6406 12.9375 67.4297 Q19.5781 74.2188 30.6094 74.2188 Q43.2656 74.2188 49.9297 64.5234 Q56.5938 54.8281 56.5938 36.375 Q56.5938 19.1406 48.4141 8.8594 Q40.2344 -1.4219 26.4219 -1.4219 Q22.7031 -1.4219 18.8984 -0.6875 Q15.0938 0.0469 10.9844 1.5156 ZM30.6094 32.4219 Q37.25 32.4219 41.1328 36.9609 Q45.0156 41.5 45.0156 49.4219 Q45.0156 57.2812 41.1328 61.8438 Q37.25 66.4062 30.6094 66.4062 Q23.9688 66.4062 20.0938 61.8438 Q16.2188 57.2812 16.2188 49.4219 Q16.2188 41.5 20.0938 36.9609 Q23.9688 32.4219 30.6094 32.4219 Z"
        /><glyph unicode="0" horiz-adv-x="63.623047" d="M31.7812 66.4062 Q24.1719 66.4062 20.3359 58.9141 Q16.5 51.4219 16.5 36.375 Q16.5 21.3906 20.3359 13.8906 Q24.1719 6.3906 31.7812 6.3906 Q39.4531 6.3906 43.2891 13.8906 Q47.125 21.3906 47.125 36.375 Q47.125 51.4219 43.2891 58.9141 Q39.4531 66.4062 31.7812 66.4062 ZM31.7812 74.2188 Q44.0469 74.2188 50.5156 64.5234 Q56.9844 54.8281 56.9844 36.375 Q56.9844 17.9688 50.5156 8.2734 Q44.0469 -1.4219 31.7812 -1.4219 Q19.5312 -1.4219 13.0625 8.2734 Q6.5938 17.9688 6.5938 36.375 Q6.5938 54.8281 13.0625 64.5234 Q19.5312 74.2188 31.7812 74.2188 Z"
        /><glyph unicode="." horiz-adv-x="31.78711" d="M10.6875 12.4062 L21 12.4062 L21 0 L10.6875 0 L10.6875 12.4062 Z"
      /></font
    ></defs
    ><g style="fill:white; stroke:white;"
    ><rect x="0" y="0" width="560" style="clip-path:url(#clipPath1); stroke:none;" height="420"
    /></g
    ><g style="fill:white; text-rendering:optimizeSpeed; color-rendering:optimizeSpeed; image-rendering:optimizeSpeed; shape-rendering:crispEdges; stroke:white; color-interpolation:sRGB;"
    ><rect x="0" width="560" height="420" y="0" style="stroke:none;"
      /><path style="stroke:none;" d="M461.5 202.5 L460.9579 188.8743 L459.3349 175.3347 L456.6413 161.9669 L452.8942 148.8554 L448.1171 136.083 L442.3405 123.7305 L435.6006 111.876 L427.9403 100.5945 L419.4078 89.9573 L410.0572 80.0316 L399.9475 70.8801 L389.1428 62.5609 L377.7112 55.1263 L365.725 48.6235 L353.2602 43.0936 L340.3953 38.5715 L327.2119 35.0858 L313.7932 32.6585 L300.224 31.305 L286.5902 31.0339 L272.978 31.8468 L259.4734 33.7387 L246.1617 36.6975 L233.1273 40.7046 L220.4524 45.7346 L208.2172 51.7558 L196.4991 58.7299 L185.3721 66.6131 L174.9066 75.3553 L165.1688 84.9015 L156.2202 95.1911 L148.1174 106.1591 L140.9116 117.7363 L134.6484 129.8493 L129.3674 142.4217 L125.1019 155.3739 L121.879 168.6241 L119.719 182.0884 L118.6356 195.6818 L118.6356 209.3182 L119.719 222.9116 L121.879 236.3759 L125.1019 249.6261 L129.3674 262.5783 L134.6484 275.1507 L140.9116 287.2637 L148.1174 298.8409 L156.2202 309.8089 L165.1688 320.0985 L174.9066 329.6447 L185.3721 338.3869 L196.4991 346.2701 L208.2172 353.2443 L220.4524 359.2654 L233.1273 364.2954 L246.1617 368.3025 L259.4734 371.2613 L272.978 373.1532 L286.5902 373.9661 L300.224 373.695 L313.7932 372.3415 L327.2119 369.9142 L340.3953 366.4285 L353.2602 361.9064 L365.725 356.3765 L377.7112 349.8737 L389.1428 342.4391 L399.9475 334.1198 L410.0572 324.9684 L419.4078 315.0427 L427.9403 304.4055 L435.6006 293.124 L442.3405 281.2695 L448.1171 268.917 L452.8942 256.1446 L456.6413 243.0331 L459.3349 229.6653 L460.9579 216.1257 Z"
    /></g
    ><g style="stroke-linecap:butt; fill-opacity:0.149; fill:rgb(38,38,38); text-rendering:geometricPrecision; image-rendering:optimizeQuality; color-rendering:optimizeQuality; stroke-linejoin:round; stroke:rgb(38,38,38); color-interpolation:linearRGB; stroke-width:0.6597; stroke-opacity:0.149;"
    ><line y2="149.5036" style="fill:none;" x1="290" x2="453.1062" y1="202.5"
      /><line y2="101.6948" style="fill:none;" x1="290" x2="428.7464" y1="202.5"
      /><line y2="63.7536" style="fill:none;" x1="290" x2="390.8052" y1="202.5"
      /><line y2="39.3938" style="fill:none;" x1="290" x2="342.9964" y1="202.5"
      /><line y2="31" style="fill:none;" x1="290" x2="290" y1="202.5"
      /><line y2="39.3938" style="fill:none;" x1="290" x2="237.0036" y1="202.5"
      /><line y2="63.7536" style="fill:none;" x1="290" x2="189.1948" y1="202.5"
      /><line y2="101.6948" style="fill:none;" x1="290" x2="151.2536" y1="202.5"
      /><line y2="149.5036" style="fill:none;" x1="290" x2="126.8938" y1="202.5"
      /><line y2="202.5" style="fill:none;" x1="290" x2="118.5" y1="202.5"
      /><line y2="255.4964" style="fill:none;" x1="290" x2="126.8938" y1="202.5"
      /><line y2="303.3052" style="fill:none;" x1="290" x2="151.2536" y1="202.5"
      /><line y2="341.2464" style="fill:none;" x1="290" x2="189.1948" y1="202.5"
      /><line y2="365.6062" style="fill:none;" x1="290" x2="237.0036" y1="202.5"
      /><line y2="374" style="fill:none;" x1="290" x2="290" y1="202.5"
      /><line y2="365.6062" style="fill:none;" x1="290" x2="342.9964" y1="202.5"
      /><line y2="341.2464" style="fill:none;" x1="290" x2="390.8052" y1="202.5"
      /><line y2="303.3052" style="fill:none;" x1="290" x2="428.7464" y1="202.5"
      /><line y2="255.4964" style="fill:none;" x1="290" x2="453.1062" y1="202.5"
      /><line y2="202.5" style="fill:none;" x1="290" x2="461.5" y1="202.5"
      /><path d="M290 202.5 L290 202.5 L290 202.5 L290 202.5 L290 202.5 L290 202.5 L290 202.5 L290 202.5 L290 202.5 L290 202.5 L290 202.5 L290 202.5 L290 202.5 L290 202.5 L290 202.5 L290 202.5 L290 202.5 L290 202.5 L290 202.5 L290 202.5 L290 202.5 L290 202.5 L290 202.5 L290 202.5 L290 202.5 L290 202.5 L290 202.5 L290 202.5 L290 202.5 L290 202.5 L290 202.5 L290 202.5 L290 202.5 L290 202.5 L290 202.5 L290 202.5 L290 202.5 L290 202.5 L290 202.5 L290 202.5 L290 202.5 L290 202.5 L290 202.5 L290 202.5 L290 202.5 L290 202.5 L290 202.5 L290 202.5 L290 202.5 L290 202.5 L290 202.5 L290 202.5 L290 202.5 L290 202.5 L290 202.5 L290 202.5 L290 202.5 L290 202.5 L290 202.5 L290 202.5 L290 202.5 L290 202.5 L290 202.5 L290 202.5 L290 202.5 L290 202.5 L290 202.5 L290 202.5 L290 202.5 L290 202.5 L290 202.5 L290 202.5 L290 202.5 L290 202.5 L290 202.5 L290 202.5 L290 202.5 L290 202.5 L290 202.5 L290 202.5" style="fill:none; fill-rule:evenodd;"
      /><path d="M324.3 202.5 L324.1916 205.2251 L323.867 207.9331 L323.3282 210.6066 L322.5788 213.2289 L321.6234 215.7834 L320.4681 218.2539 L319.1201 220.6248 L317.588 222.8811 L315.8816 225.0085 L314.0114 226.9937 L311.9895 228.824 L309.8286 230.4878 L307.5422 231.9747 L305.145 233.2753 L302.652 234.3813 L300.0791 235.2857 L297.4424 235.9828 L294.7586 236.4683 L292.0448 236.739 L289.3181 236.7932 L286.5956 236.6306 L283.8947 236.2523 L281.2324 235.6605 L278.6255 234.8591 L276.0905 233.8531 L273.6434 232.6488 L271.2998 231.254 L269.0744 229.6774 L266.9813 227.9289 L265.0338 226.0197 L263.244 223.9618 L261.6235 221.7682 L260.1823 219.4527 L258.9297 217.0301 L257.8735 214.5157 L257.0204 211.9252 L256.3758 209.2752 L255.9438 206.5823 L255.7271 203.8636 L255.7271 201.1364 L255.9438 198.4177 L256.3758 195.7248 L257.0204 193.0748 L257.8735 190.4843 L258.9297 187.9699 L260.1823 185.5473 L261.6235 183.2318 L263.244 181.0382 L265.0338 178.9803 L266.9813 177.0711 L269.0744 175.3226 L271.2998 173.746 L273.6434 172.3512 L276.0905 171.1469 L278.6255 170.1409 L281.2324 169.3395 L283.8947 168.7477 L286.5956 168.3694 L289.3181 168.2068 L292.0448 168.261 L294.7586 168.5317 L297.4424 169.0172 L300.0791 169.7143 L302.652 170.6187 L305.145 171.7247 L307.5422 173.0253 L309.8286 174.5122 L311.9895 176.176 L314.0114 178.0063 L315.8816 179.9915 L317.588 182.1189 L319.1201 184.3752 L320.4681 186.7461 L321.6234 189.2166 L322.5788 191.7711 L323.3282 194.3934 L323.867 197.0669 L324.1916 199.7749 L324.3 202.5" style="fill:none; fill-rule:evenodd;"
      /><path d="M358.6 202.5 L358.3831 207.9503 L357.7339 213.3661 L356.6565 218.7132 L355.1577 223.9578 L353.2469 229.0668 L350.9362 234.0078 L348.2403 238.7496 L345.1761 243.2622 L341.7631 247.5171 L338.0229 251.4874 L333.979 255.1479 L329.6571 258.4756 L325.0845 261.4495 L320.29 264.0506 L315.3041 266.2626 L310.1581 268.0714 L304.8847 269.4657 L299.5172 270.4366 L294.0896 270.978 L288.6361 271.0865 L283.1912 270.7613 L277.7893 270.0045 L272.4647 268.821 L267.2509 267.2181 L262.181 265.2061 L257.2869 262.7977 L252.5996 260.008 L248.1488 256.8548 L243.9626 253.3579 L240.0675 249.5394 L236.4881 245.4236 L233.2469 241.0364 L230.3646 236.4055 L227.8593 231.5603 L225.7469 226.5313 L224.0408 221.3504 L222.7516 216.0504 L221.8876 210.6646 L221.4542 205.2273 L221.4542 199.7727 L221.8876 194.3354 L222.7516 188.9496 L224.0408 183.6496 L225.7469 178.4687 L227.8593 173.4397 L230.3646 168.5945 L233.2469 163.9636 L236.4881 159.5764 L240.0675 155.4606 L243.9626 151.6421 L248.1488 148.1452 L252.5996 144.992 L257.2869 142.2023 L262.181 139.7939 L267.2509 137.7818 L272.4647 136.179 L277.7893 134.9955 L283.1912 134.2387 L288.6361 133.9136 L294.0896 134.022 L299.5172 134.5634 L304.8847 135.5343 L310.1581 136.9286 L315.3041 138.7374 L320.29 140.9494 L325.0845 143.5505 L329.6571 146.5244 L333.979 149.8521 L338.0229 153.5126 L341.7631 157.4829 L345.1761 161.7378 L348.2403 166.2504 L350.9362 170.9922 L353.2469 175.9332 L355.1577 181.0422 L356.6565 186.2868 L357.7339 191.6339 L358.3831 197.0497 L358.6 202.5" style="fill:none; fill-rule:evenodd;"
      /><path d="M392.9 202.5 L392.5747 210.6754 L391.6009 218.7992 L389.9848 226.8198 L387.7365 234.6868 L384.8703 242.3502 L381.4043 249.7617 L377.3604 256.8744 L372.7642 263.6433 L367.6447 270.0256 L362.0343 275.981 L355.9685 281.4719 L349.4857 286.4635 L342.6267 290.9242 L335.435 294.8259 L327.9561 298.1438 L320.2372 300.8571 L312.3271 302.9485 L304.2759 304.4049 L296.1344 305.217 L287.9541 305.3797 L279.7868 304.8919 L271.684 303.7568 L263.6971 301.9815 L255.8764 299.5772 L248.2714 296.5592 L240.9303 292.9465 L233.8995 288.7621 L227.2233 284.0322 L220.944 278.7868 L215.1013 273.0591 L209.7321 266.8853 L204.8704 260.3045 L200.547 253.3582 L196.789 246.0904 L193.6204 238.547 L191.0611 230.7757 L189.1274 222.8256 L187.8314 214.747 L187.1814 206.5909 L187.1814 198.4091 L187.8314 190.253 L189.1274 182.1744 L191.0611 174.2243 L193.6204 166.453 L196.789 158.9096 L200.547 151.6418 L204.8704 144.6955 L209.7321 138.1146 L215.1013 131.9409 L220.944 126.2132 L227.2233 120.9678 L233.8995 116.238 L240.9303 112.0535 L248.2714 108.4408 L255.8764 105.4228 L263.6971 103.0185 L271.684 101.2432 L279.7868 100.1081 L287.9541 99.6203 L296.1344 99.783 L304.2759 100.5951 L312.3271 102.0515 L320.2372 104.1429 L327.9561 106.8562 L335.435 110.1741 L342.6267 114.0758 L349.4857 118.5365 L355.9685 123.5281 L362.0343 129.019 L367.6447 134.9744 L372.7642 141.3567 L377.3604 148.1256 L381.4043 155.2383 L384.8703 162.6498 L387.7365 170.3132 L389.9848 178.1802 L391.6009 186.2008 L392.5747 194.3246 L392.9 202.5" style="fill:none; fill-rule:evenodd;"
      /><path d="M427.2 202.5 L426.7663 213.4006 L425.4679 224.2322 L423.313 234.9265 L420.3153 245.4157 L416.4937 255.6336 L411.8724 265.5156 L406.4805 274.9992 L400.3522 284.0244 L393.5263 292.5342 L386.0458 300.4747 L377.958 307.7959 L369.3142 314.4513 L360.1689 320.3989 L350.58 325.6012 L340.6081 330.0251 L330.3163 333.6428 L319.7695 336.4314 L309.0345 338.3732 L298.1792 339.456 L287.2722 339.6729 L276.3824 339.0225 L265.5787 337.509 L254.9294 335.142 L244.5018 331.9363 L234.3619 327.9123 L224.5738 323.0954 L215.1993 317.5161 L206.2977 311.2095 L197.9253 304.2157 L190.135 296.5788 L182.9761 288.3471 L176.4939 279.5727 L170.7293 270.311 L165.7187 260.6205 L161.4939 250.5627 L158.0815 240.2009 L155.5032 229.6008 L153.7752 218.8293 L152.9085 207.9546 L152.9085 197.0454 L153.7752 186.1707 L155.5032 175.3992 L158.0815 164.7991 L161.4939 154.4373 L165.7187 144.3795 L170.7293 134.689 L176.4939 125.4273 L182.9761 116.6528 L190.135 108.4212 L197.9253 100.7843 L206.2977 93.7905 L215.1993 87.484 L224.5738 81.9046 L234.3619 77.0877 L244.5018 73.0637 L254.9294 69.858 L265.5787 67.491 L276.3824 65.9775 L287.2722 65.3271 L298.1792 65.544 L309.0345 66.6268 L319.7695 68.5686 L330.3163 71.3572 L340.6081 74.9749 L350.58 79.3988 L360.1689 84.6011 L369.3142 90.5487 L377.958 97.2041 L386.0458 104.5253 L393.5263 112.4658 L400.3522 120.9756 L406.4805 130.0008 L411.8724 139.4844 L416.4937 149.3664 L420.3153 159.5843 L423.313 170.0735 L425.4679 180.7678 L426.7663 191.5994 L427.2 202.5" style="fill:none; fill-rule:evenodd;"
      /><path d="M461.5 202.5 L460.9579 216.1257 L459.3349 229.6653 L456.6413 243.0331 L452.8942 256.1446 L448.1171 268.917 L442.3405 281.2695 L435.6006 293.124 L427.9403 304.4055 L419.4078 315.0427 L410.0572 324.9684 L399.9475 334.1198 L389.1428 342.4391 L377.7112 349.8737 L365.725 356.3765 L353.2602 361.9064 L340.3953 366.4285 L327.2119 369.9142 L313.7932 372.3415 L300.224 373.695 L286.5902 373.9661 L272.978 373.1532 L259.4734 371.2613 L246.1617 368.3025 L233.1273 364.2954 L220.4524 359.2654 L208.2172 353.2443 L196.4991 346.2701 L185.3721 338.3869 L174.9066 329.6447 L165.1688 320.0985 L156.2202 309.8089 L148.1174 298.8409 L140.9116 287.2637 L134.6484 275.1507 L129.3674 262.5783 L125.1019 249.6261 L121.879 236.3759 L119.719 222.9116 L118.6356 209.3182 L118.6356 195.6818 L119.719 182.0884 L121.879 168.6241 L125.1019 155.3739 L129.3674 142.4217 L134.6484 129.8493 L140.9116 117.7363 L148.1174 106.1591 L156.2202 95.1911 L165.1688 84.9015 L174.9066 75.3553 L185.3721 66.6131 L196.4991 58.7299 L208.2172 51.7558 L220.4524 45.7346 L233.1273 40.7046 L246.1617 36.6975 L259.4734 33.7387 L272.978 31.8468 L286.5902 31.0339 L300.224 31.305 L313.7932 32.6585 L327.2119 35.0858 L340.3953 38.5715 L353.2602 43.0936 L365.725 48.6235 L377.7112 55.1263 L389.1428 62.5609 L399.9475 70.8801 L410.0572 80.0316 L419.4078 89.9573 L427.9403 100.5945 L435.6006 111.876 L442.3405 123.7305 L448.1171 136.083 L452.8942 148.8554 L456.6413 161.9669 L459.3349 175.3347 L460.9579 188.8743 L461.5 202.5" style="fill:none; fill-rule:evenodd;"
    /></g
    ><g style="fill-opacity:0.6; fill:rgb(0,114,189); text-rendering:optimizeSpeed; image-rendering:optimizeSpeed; color-rendering:optimizeSpeed; shape-rendering:crispEdges; stroke:rgb(0,114,189); color-interpolation:sRGB; stroke-opacity:0.6;"
    ><path style="stroke:none;" d="M290 202.5 L350.5294 202.5 L350.3428 197.7509 L349.7842 193.0311 L348.857 188.3697 L347.5669 183.7954 ZM290 202.5 L309.189 196.2651 L308.6406 194.7788 L307.9774 193.3401 L307.2033 191.9578 L306.3231 190.6406 ZM290 202.5 L314.4846 184.7108 L313.0135 182.8447 L311.4004 181.0996 L309.6554 179.4865 L307.7892 178.0153 ZM290 202.5 L292.9648 198.4192 L292.6356 198.1992 L292.29 198.0057 L291.9303 197.8398 L291.5587 197.7028 ZM290 202.5 L293.1174 192.9055 L292.355 192.6905 L291.5782 192.536 L290.7915 192.4429 L290 192.4118 ZM290 202.5 L290 187.3676 L288.8127 187.4143 L287.6328 187.554 L286.4674 187.7858 L285.3239 188.1083 ZM290 202.5 L285.9192 199.5351 L285.6992 199.8645 L285.5056 200.21 L285.3398 200.5697 L285.2028 200.9413 ZM290 202.5 L295.9297 210.6616 L296.5518 210.1712 L297.1335 209.6335 L297.6711 209.0518 L298.1616 208.4297 ZM290 202.5 L302.2423 211.3946 L302.9025 210.4066 L303.483 209.3699 L303.9805 208.2909 L304.3917 207.1761 Z"
    /></g
    ><g style="text-rendering:geometricPrecision; stroke-width:0.6597; color-interpolation:linearRGB; color-rendering:optimizeQuality; image-rendering:optimizeQuality;"
    ><path d="M290 202.5 L350.5294 202.5 L350.3428 197.7509 L349.7842 193.0311 L348.857 188.3697 L347.5669 183.7954 L290 202.5 L290 202.5 L290 202.5 L290 202.5 L290 202.5" style="fill:none; fill-rule:evenodd;"
      /><path d="M309.189 196.2651 L308.6406 194.7788 L307.9774 193.3401 L307.2033 191.9578 L306.3231 190.6406" style="fill:none; fill-rule:evenodd;"
      /><path d="M290 202.5 L290 202.5 L290 202.5 L290 202.5 L290 202.5" style="fill:none; fill-rule:evenodd;"
      /><path d="M290 202.5 L314.4846 184.7108 L313.0135 182.8447 L311.4004 181.0996 L309.6554 179.4865 L307.7892 178.0153 L290 202.5 L290 202.5 L290 202.5 L290 202.5 L290 202.5" style="fill:none; fill-rule:evenodd;"
      /><path d="M292.9648 198.4192 L292.6356 198.1992 L292.29 198.0057 L291.9303 197.8398 L291.5587 197.7028" style="fill:none; fill-rule:evenodd;"
      /><path d="M290 202.5 L290 202.5 L290 202.5 L290 202.5 L290 202.5" style="fill:none; fill-rule:evenodd;"
      /><path d="M290 202.5 L293.1174 192.9055 L292.355 192.6905 L291.5782 192.536 L290.7915 192.4429 L290 192.4118" style="fill:none; fill-rule:evenodd;"
      /><path d="M290 202.5 L290 202.5 L290 202.5 L290 202.5 L290 202.5" style="fill:none; fill-rule:evenodd;"
      /><path d="M290 202.5 L290 187.3676 L288.8127 187.4143 L287.6328 187.554 L286.4674 187.7858 L285.3239 188.1083 L290 202.5 L290 202.5 L290 202.5 L290 202.5 L290 202.5" style="fill:none; fill-rule:evenodd;"
      /><path d="M290 202.5 L290 202.5 L290 202.5 L290 202.5 L290 202.5 L290 202.5 L290 202.5 L290 202.5 L290 202.5 L290 202.5" style="fill:none; fill-rule:evenodd;"
      /><path d="M290 202.5 L290 202.5 L290 202.5 L290 202.5 L290 202.5" style="fill:none; fill-rule:evenodd;"
      /><path d="M290 202.5 L290 202.5 L290 202.5 L290 202.5 L290 202.5" style="fill:none; fill-rule:evenodd;"
      /><path d="M290 202.5 L285.9192 199.5351 L285.6992 199.8645 L285.5056 200.21 L285.3398 200.5697 L285.2028 200.9413 L290 202.5 L290 202.5 L290 202.5 L290 202.5 L290 202.5" style="fill:none; fill-rule:evenodd;"
      /><path d="M290 202.5 L290 202.5 L290 202.5 L290 202.5 L290 202.5 L290 202.5 L290 202.5 L290 202.5 L290 202.5 L290 202.5" style="fill:none; fill-rule:evenodd;"
      /><path d="M290 202.5 L290 202.5 L290 202.5 L290 202.5 L290 202.5 L290 202.5 L290 202.5 L290 202.5 L290 202.5 L290 202.5" style="fill:none; fill-rule:evenodd;"
      /><path d="M290 202.5 L290 202.5 L290 202.5 L290 202.5 L290 202.5 L290 202.5 L290 202.5 L290 202.5 L290 202.5 L290 202.5" style="fill:none; fill-rule:evenodd;"
      /><path d="M290 202.5 L290 202.5 L290 202.5 L290 202.5 L290 202.5 L290 202.5 L290 202.5 L290 202.5 L290 202.5 L290 202.5" style="fill:none; fill-rule:evenodd;"
      /><path d="M290 202.5 L290 202.5 L290 202.5 L290 202.5 L290 202.5 L290 202.5 L290 202.5 L290 202.5 L290 202.5 L290 202.5" style="fill:none; fill-rule:evenodd;"
      /><path d="M290 202.5 L290 202.5 L290 202.5 L290 202.5 L290 202.5 L290 202.5 L290 202.5 L290 202.5 L290 202.5 L290 202.5" style="fill:none; fill-rule:evenodd;"
      /><path d="M290 202.5 L290 202.5 L290 202.5 L290 202.5 L290 202.5 L290 202.5 L290 202.5 L290 202.5 L290 202.5 L290 202.5" style="fill:none; fill-rule:evenodd;"
      /><path d="M290 202.5 L290 202.5 L290 202.5 L290 202.5 L290 202.5" style="fill:none; fill-rule:evenodd;"
      /><path d="M290 202.5 L290 202.5 L290 202.5 L290 202.5 L290 202.5" style="fill:none; fill-rule:evenodd;"
      /><path d="M290 202.5 L295.9297 210.6616 L296.5518 210.1712 L297.1335 209.6335 L297.6711 209.0518 L298.1616 208.4297" style="fill:none; fill-rule:evenodd;"
      /><path d="M290 202.5 L290 202.5 L290 202.5 L290 202.5 L290 202.5" style="fill:none; fill-rule:evenodd;"
      /><path d="M290 202.5 L302.2423 211.3946 L302.9025 210.4066 L303.483 209.3699 L303.9805 208.2909 L304.3917 207.1761 L290 202.5 L290 202.5 L290 202.5 L290 202.5 L290 202.5" style="fill:none; fill-rule:evenodd;"
      /><path d="M290 202.5 L290 202.5 L290 202.5 L290 202.5 L290 202.5 L290 202.5 L290 202.5 L290 202.5 L290 202.5 L290 202.5" style="fill:none; fill-rule:evenodd;"
    /></g
    ><g style="fill-opacity:0.149; fill:rgb(38,38,38); text-rendering:geometricPrecision; image-rendering:optimizeQuality; color-rendering:optimizeQuality; stroke-linejoin:round; stroke:rgb(38,38,38); color-interpolation:linearRGB; stroke-width:0.6597; stroke-opacity:0.149;"
    ><path d="M461.5 202.5 L460.9579 188.8743 L459.3349 175.3347 L456.6413 161.9669 L452.8942 148.8554 L448.1171 136.083 L442.3405 123.7305 L435.6006 111.876 L427.9403 100.5945 L419.4078 89.9573 L410.0572 80.0316 L399.9475 70.8801 L389.1428 62.5609 L377.7112 55.1263 L365.725 48.6235 L353.2602 43.0936 L340.3953 38.5715 L327.2119 35.0858 L313.7932 32.6585 L300.224 31.305 L286.5902 31.0339 L272.978 31.8468 L259.4734 33.7387 L246.1617 36.6975 L233.1273 40.7046 L220.4524 45.7346 L208.2172 51.7558 L196.4991 58.7299 L185.3721 66.6131 L174.9066 75.3553 L165.1688 84.9015 L156.2202 95.1911 L148.1174 106.1591 L140.9116 117.7363 L134.6484 129.8493 L129.3674 142.4217 L125.1019 155.3739 L121.879 168.6241 L119.719 182.0884 L118.6356 195.6818 L118.6356 209.3182 L119.719 222.9116 L121.879 236.3759 L125.1019 249.6261 L129.3674 262.5783 L134.6484 275.1507 L140.9116 287.2637 L148.1174 298.8409 L156.2202 309.8089 L165.1688 320.0985 L174.9066 329.6447 L185.3721 338.3869 L196.4991 346.2701 L208.2172 353.2443 L220.4524 359.2654 L233.1273 364.2954 L246.1617 368.3025 L259.4734 371.2613 L272.978 373.1532 L286.5902 373.9661 L300.224 373.695 L313.7932 372.3415 L327.2119 369.9142 L340.3953 366.4285 L353.2602 361.9064 L365.725 356.3765 L377.7112 349.8737 L389.1428 342.4391 L399.9475 334.1198 L410.0572 324.9684 L419.4078 315.0427 L427.9403 304.4055 L435.6006 293.124 L442.3405 281.2695 L448.1171 268.917 L452.8942 256.1446 L456.6413 243.0331 L459.3349 229.6653 L460.9579 216.1257 L461.5 202.5" style="fill:none; fill-rule:evenodd;"
    /></g
    ><g transform="translate(458.1257,147.8727)" style="font-size:13.1944px; fill:rgb(38,38,38); text-rendering:geometricPrecision; image-rendering:optimizeQuality; color-rendering:optimizeQuality; font-family:'SansSerif'; stroke:rgb(38,38,38); color-interpolation:linearRGB;"
    ><text x="0" xml:space="preserve" y="4.5" style="stroke:none;"
      >1</text
    ></g
    ><g transform="translate(433.0162,98.5926)" style="font-size:13.1944px; fill:rgb(38,38,38); text-rendering:geometricPrecision; image-rendering:optimizeQuality; color-rendering:optimizeQuality; font-family:'SansSerif'; stroke:rgb(38,38,38); color-interpolation:linearRGB;"
    ><text x="0" xml:space="preserve" y="-4" style="stroke:none;"
      >2</text
    ></g
    ><g transform="translate(393.9074,59.4838)" style="font-size:13.1944px; fill:rgb(38,38,38); text-rendering:geometricPrecision; image-rendering:optimizeQuality; color-rendering:optimizeQuality; font-family:'SansSerif'; stroke:rgb(38,38,38); color-interpolation:linearRGB;"
    ><text x="0" xml:space="preserve" y="-4" style="stroke:none;"
      >3</text
    ></g
    ><g transform="translate(344.6273,34.3743)" style="font-size:13.1944px; fill:rgb(38,38,38); text-rendering:geometricPrecision; image-rendering:optimizeQuality; color-rendering:optimizeQuality; font-family:'SansSerif'; stroke:rgb(38,38,38); color-interpolation:linearRGB;"
    ><text x="0" xml:space="preserve" y="-4" style="stroke:none;"
      >4</text
    ></g
    ><g transform="translate(290,25.7222)" style="font-size:13.1944px; fill:rgb(38,38,38); text-rendering:geometricPrecision; image-rendering:optimizeQuality; color-rendering:optimizeQuality; font-family:'SansSerif'; stroke:rgb(38,38,38); color-interpolation:linearRGB;"
    ><text x="-4.5" xml:space="preserve" y="-4" style="stroke:none;"
      >5</text
    ></g
    ><g transform="translate(235.3727,34.3743)" style="font-size:13.1944px; fill:rgb(38,38,38); text-rendering:geometricPrecision; image-rendering:optimizeQuality; color-rendering:optimizeQuality; font-family:'SansSerif'; stroke:rgb(38,38,38); color-interpolation:linearRGB;"
    ><text x="-9" xml:space="preserve" y="-4" style="stroke:none;"
      >6</text
    ></g
    ><g transform="translate(186.0926,59.4838)" style="font-size:13.1944px; fill:rgb(38,38,38); text-rendering:geometricPrecision; image-rendering:optimizeQuality; color-rendering:optimizeQuality; font-family:'SansSerif'; stroke:rgb(38,38,38); color-interpolation:linearRGB;"
    ><text x="-9" xml:space="preserve" y="-4" style="stroke:none;"
      >7</text
    ></g
    ><g transform="translate(146.9838,98.5926)" style="font-size:13.1944px; fill:rgb(38,38,38); text-rendering:geometricPrecision; image-rendering:optimizeQuality; color-rendering:optimizeQuality; font-family:'SansSerif'; stroke:rgb(38,38,38); color-interpolation:linearRGB;"
    ><text x="-9" xml:space="preserve" y="-4" style="stroke:none;"
      >8</text
    ></g
    ><g transform="translate(121.8743,147.8727)" style="font-size:13.1944px; fill:rgb(38,38,38); text-rendering:geometricPrecision; image-rendering:optimizeQuality; color-rendering:optimizeQuality; font-family:'SansSerif'; stroke:rgb(38,38,38); color-interpolation:linearRGB;"
    ><text x="-9" xml:space="preserve" y="4.5" style="stroke:none;"
      >9</text
    ></g
    ><g transform="translate(113.2222,202.5)" style="font-size:13.1944px; fill:rgb(38,38,38); text-rendering:geometricPrecision; image-rendering:optimizeQuality; color-rendering:optimizeQuality; font-family:'SansSerif'; stroke:rgb(38,38,38); color-interpolation:linearRGB;"
    ><text x="-17" xml:space="preserve" y="4.5" style="stroke:none;"
      >10</text
    ></g
    ><g transform="translate(121.8743,257.1273)" style="font-size:13.1944px; fill:rgb(38,38,38); text-rendering:geometricPrecision; image-rendering:optimizeQuality; color-rendering:optimizeQuality; font-family:'SansSerif'; stroke:rgb(38,38,38); color-interpolation:linearRGB;"
    ><text x="-17" xml:space="preserve" y="4.5" style="stroke:none;"
      >11</text
    ></g
    ><g transform="translate(146.9838,306.4074)" style="font-size:13.1944px; fill:rgb(38,38,38); text-rendering:geometricPrecision; image-rendering:optimizeQuality; color-rendering:optimizeQuality; font-family:'SansSerif'; stroke:rgb(38,38,38); color-interpolation:linearRGB;"
    ><text x="-17" xml:space="preserve" y="13" style="stroke:none;"
      >12</text
    ></g
    ><g transform="translate(186.0926,345.5162)" style="font-size:13.1944px; fill:rgb(38,38,38); text-rendering:geometricPrecision; image-rendering:optimizeQuality; color-rendering:optimizeQuality; font-family:'SansSerif'; stroke:rgb(38,38,38); color-interpolation:linearRGB;"
    ><text x="-17" xml:space="preserve" y="13" style="stroke:none;"
      >13</text
    ></g
    ><g transform="translate(235.3727,370.6257)" style="font-size:13.1944px; fill:rgb(38,38,38); text-rendering:geometricPrecision; image-rendering:optimizeQuality; color-rendering:optimizeQuality; font-family:'SansSerif'; stroke:rgb(38,38,38); color-interpolation:linearRGB;"
    ><text x="-17" xml:space="preserve" y="13" style="stroke:none;"
      >14</text
    ></g
    ><g transform="translate(290,379.2778)" style="font-size:13.1944px; fill:rgb(38,38,38); text-rendering:geometricPrecision; image-rendering:optimizeQuality; color-rendering:optimizeQuality; font-family:'SansSerif'; stroke:rgb(38,38,38); color-interpolation:linearRGB;"
    ><text x="-8.5" xml:space="preserve" y="13" style="stroke:none;"
      >15</text
    ></g
    ><g transform="translate(344.6273,370.6257)" style="font-size:13.1944px; fill:rgb(38,38,38); text-rendering:geometricPrecision; image-rendering:optimizeQuality; color-rendering:optimizeQuality; font-family:'SansSerif'; stroke:rgb(38,38,38); color-interpolation:linearRGB;"
    ><text x="0" xml:space="preserve" y="13" style="stroke:none;"
      >16</text
    ></g
    ><g transform="translate(393.9074,345.5162)" style="font-size:13.1944px; fill:rgb(38,38,38); text-rendering:geometricPrecision; image-rendering:optimizeQuality; color-rendering:optimizeQuality; font-family:'SansSerif'; stroke:rgb(38,38,38); color-interpolation:linearRGB;"
    ><text x="0" xml:space="preserve" y="13" style="stroke:none;"
      >17</text
    ></g
    ><g transform="translate(433.0162,306.4074)" style="font-size:13.1944px; fill:rgb(38,38,38); text-rendering:geometricPrecision; image-rendering:optimizeQuality; color-rendering:optimizeQuality; font-family:'SansSerif'; stroke:rgb(38,38,38); color-interpolation:linearRGB;"
    ><text x="0" xml:space="preserve" y="13" style="stroke:none;"
      >18</text
    ></g
    ><g transform="translate(458.1257,257.1273)" style="font-size:13.1944px; fill:rgb(38,38,38); text-rendering:geometricPrecision; image-rendering:optimizeQuality; color-rendering:optimizeQuality; font-family:'SansSerif'; stroke:rgb(38,38,38); color-interpolation:linearRGB;"
    ><text x="0" xml:space="preserve" y="4.5" style="stroke:none;"
      >19</text
    ></g
    ><g transform="translate(466.7778,202.5)" style="font-size:13.1944px; fill:rgb(38,38,38); text-rendering:geometricPrecision; image-rendering:optimizeQuality; color-rendering:optimizeQuality; font-family:'SansSerif'; stroke:rgb(38,38,38); color-interpolation:linearRGB;"
    ><text x="0" xml:space="preserve" y="4.5" style="stroke:none;"
      >20</text
    ></g
    ><g transform="translate(290,202.5)" style="font-size:13.1944px; fill:rgb(38,38,38); text-rendering:geometricPrecision; image-rendering:optimizeQuality; color-rendering:optimizeQuality; font-family:'SansSerif'; stroke:rgb(38,38,38); color-interpolation:linearRGB;"
    ><text x="-4.5" xml:space="preserve" y="4.5" style="stroke:none;"
      >0</text
    ></g
    ><g transform="translate(295.9561,168.7211)" style="font-size:13.1944px; fill:rgb(38,38,38); text-rendering:geometricPrecision; image-rendering:optimizeQuality; color-rendering:optimizeQuality; font-family:'SansSerif'; stroke:rgb(38,38,38); color-interpolation:linearRGB;"
    ><text x="-10.5" xml:space="preserve" y="4.5" style="stroke:none;"
      >0.2</text
    ></g
    ><g transform="translate(301.9123,134.9422)" style="font-size:13.1944px; fill:rgb(38,38,38); text-rendering:geometricPrecision; image-rendering:optimizeQuality; color-rendering:optimizeQuality; font-family:'SansSerif'; stroke:rgb(38,38,38); color-interpolation:linearRGB;"
    ><text x="-10.5" xml:space="preserve" y="4.5" style="stroke:none;"
      >0.4</text
    ></g
    ><g transform="translate(307.8684,101.1633)" style="font-size:13.1944px; fill:rgb(38,38,38); text-rendering:geometricPrecision; image-rendering:optimizeQuality; color-rendering:optimizeQuality; font-family:'SansSerif'; stroke:rgb(38,38,38); color-interpolation:linearRGB;"
    ><text x="-10.5" xml:space="preserve" y="4.5" style="stroke:none;"
      >0.6</text
    ></g
    ><g transform="translate(313.8245,67.3844)" style="font-size:13.1944px; fill:rgb(38,38,38); text-rendering:geometricPrecision; image-rendering:optimizeQuality; color-rendering:optimizeQuality; font-family:'SansSerif'; stroke:rgb(38,38,38); color-interpolation:linearRGB;"
    ><text x="-10.5" xml:space="preserve" y="4.5" style="stroke:none;"
      >0.8</text
    ></g
    ><g transform="translate(319.7807,33.6055)" style="font-size:13.1944px; fill:rgb(38,38,38); text-rendering:geometricPrecision; image-rendering:optimizeQuality; color-rendering:optimizeQuality; font-family:'SansSerif'; stroke:rgb(38,38,38); color-interpolation:linearRGB;"
    ><text x="-4.5" xml:space="preserve" y="4.5" style="stroke:none;"
      >1</text
    ></g
  ></g
></svg
>
