%!PS-Adobe-3.0 EPSF-3.0
%%DocumentNeededResources: font Helvetica
%%+ font Helvetica-Bold
%%+ font Helvetica-Oblique
%%+ font Helvetica-BoldOblique
%%+ font Symbol
%%Title: R Graphics Output
%%Creator: R Software
%%Pages: (atend)
%%BoundingBox: 0 0 503 531
%%EndComments
%%BeginProlog
/bp  { gs sRGB gs } def
% begin .ps.prolog
/gs  { gsave } bind def
/gr  { grestore } bind def
/ep  { showpage gr gr } bind def
/m   { moveto } bind def
/l  { rlineto } bind def
/np  { newpath } bind def
/cp  { closepath } bind def
/f   { fill } bind def
/o   { stroke } bind def
/c   { newpath 0 360 arc } bind def
/r   { 4 2 roll moveto 1 copy 3 -1 roll exch 0 exch rlineto 0 rlineto -1 mul 0 exch rlineto closepath } bind def
/p1  { stroke } bind def
/p2  { gsave bg fill grestore newpath } bind def
/p3  { gsave bg fill grestore stroke } bind def
/p6  { gsave bg eofill grestore newpath } bind def
/p7  { gsave bg eofill grestore stroke } bind def
/t   { 5 -2 roll moveto gsave rotate
       1 index stringwidth pop
       mul neg 0 rmoveto show grestore } bind def
/ta  { 4 -2 roll moveto gsave rotate show } bind def
/tb  { 2 -1 roll 0 rmoveto show } bind def
/cl  { grestore gsave newpath 3 index 3 index moveto 1 index
       4 -1 roll lineto  exch 1 index lineto lineto
       closepath clip newpath } bind def
/rgb { setrgbcolor } bind def
/s   { scalefont setfont } bind def
% end   .ps.prolog
/sRGB { [ /CIEBasedABC
          << /DecodeLMN
               [ { dup 0.03928 le
                        {12.92321 div}
                        {0.055 add 1.055 div 2.4 exp }
                     ifelse
                 } bind dup dup
               ]
             /MatrixLMN [0.412457 0.212673 0.019334
                         0.357576 0.715152 0.119192
                         0.180437 0.072175 0.950301]
             /WhitePoint [0.9505 1.0 1.0890]
           >>
         ] setcolorspace } bind def
/srgb { setcolor } bind def
%%IncludeResource: font Helvetica
/Helvetica findfont
dup length dict begin
  {1 index /FID ne {def} {pop pop} ifelse} forall
  /Encoding ISOLatin1Encoding def
  currentdict
  end
/Font1 exch definefont pop
%%IncludeResource: font Helvetica-Bold
/Helvetica-Bold findfont
dup length dict begin
  {1 index /FID ne {def} {pop pop} ifelse} forall
  /Encoding ISOLatin1Encoding def
  currentdict
  end
/Font2 exch definefont pop
%%IncludeResource: font Helvetica-Oblique
/Helvetica-Oblique findfont
dup length dict begin
  {1 index /FID ne {def} {pop pop} ifelse} forall
  /Encoding ISOLatin1Encoding def
  currentdict
  end
/Font3 exch definefont pop
%%IncludeResource: font Helvetica-BoldOblique
/Helvetica-BoldOblique findfont
dup length dict begin
  {1 index /FID ne {def} {pop pop} ifelse} forall
  /Encoding ISOLatin1Encoding def
  currentdict
  end
/Font4 exch definefont pop
%%IncludeResource: font Symbol
/Symbol findfont
dup length dict begin
  {1 index /FID ne {def} {pop pop} ifelse} forall
  currentdict
  end
/Font5 exch definefont pop
%%EndProlog
%%Page: 1 1
bp
59.04 73.44 473.01 471.67 cl
0.7451 0.7451 0.7451 srgb
0.75 setlinewidth
[] 0 setdash
1 setlinecap
1 setlinejoin
10.00 setmiterlimit
251.59 290.70 2.70 c p1
303.78 227.81 2.70 c p1
278.93 267.92 2.70 c p1
430.15 362.11 2.70 c p1
333.69 120.00 2.70 c p1
326.73 353.81 2.70 c p1
322.00 320.33 2.70 c p1
238.46 313.66 2.70 c p1
287.70 339.80 2.70 c p1
387.41 256.56 2.70 c p1
324.97 261.05 2.70 c p1
281.41 262.81 2.70 c p1
320.86 299.04 2.70 c p1
266.37 95.31 2.70 c p1
308.28 348.83 2.70 c p1
363.07 300.47 2.70 c p1
233.03 214.71 2.70 c p1
239.98 211.01 2.70 c p1
427.84 456.92 2.70 c p1
325.38 352.94 2.70 c p1
253.38 198.33 2.70 c p1
375.88 188.54 2.70 c p1
260.19 262.03 2.70 c p1
279.85 240.54 2.70 c p1
283.82 214.90 2.70 c p1
275.81 301.90 2.70 c p1
183.04 272.27 2.70 c p1
222.89 209.90 2.70 c p1
280.57 311.79 2.70 c p1
253.49 227.81 2.70 c p1
291.74 292.73 2.70 c p1
315.43 280.44 2.70 c p1
321.34 244.56 2.70 c p1
260.97 381.84 2.70 c p1
326.03 296.59 2.70 c p1
248.24 248.80 2.70 c p1
267.29 360.57 2.70 c p1
377.93 293.94 2.70 c p1
408.58 226.31 2.70 c p1
275.32 273.46 2.70 c p1
195.67 283.24 2.70 c p1
199.00 238.24 2.70 c p1
237.36 250.93 2.70 c p1
158.50 350.77 2.70 c p1
229.44 210.64 2.70 c p1
286.54 232.54 2.70 c p1
370.07 197.24 2.70 c p1
397.82 316.57 2.70 c p1
259.09 251.31 2.70 c p1
313.18 313.25 2.70 c p1
263.70 316.99 2.70 c p1
261.87 286.66 2.70 c p1
173.05 316.57 2.70 c p1
250.20 410.33 2.70 c p1
336.85 422.69 2.70 c p1
298.41 230.65 2.70 c p1
245.20 146.44 2.70 c p1
260.68 299.65 2.70 c p1
253.12 125.53 2.70 c p1
264.06 271.68 2.70 c p1
329.66 347.31 2.70 c p1
273.65 244.75 2.70 c p1
224.00 186.20 2.70 c p1
283.45 259.09 2.70 c p1
257.25 257.14 2.70 c p1
252.52 246.49 2.70 c p1
273.90 353.16 2.70 c p1
207.97 189.26 2.70 c p1
354.67 309.52 2.70 c p1
294.71 218.06 2.70 c p1
227.36 345.59 2.70 c p1
158.02 277.64 2.70 c p1
223.17 256.95 2.70 c p1
284.32 172.45 2.70 c p1
203.50 249.19 2.70 c p1
297.41 374.25 2.70 c p1
361.21 324.11 2.70 c p1
297.53 191.25 2.70 c p1
225.30 229.89 2.70 c p1
222.49 286.06 2.70 c p1
260.26 201.80 2.70 c p1
334.29 283.44 2.70 c p1
272.53 298.42 2.70 c p1
341.30 220.87 2.70 c p1
301.67 201.62 2.70 c p1
312.25 315.53 2.70 c p1
275.25 346.45 2.70 c p1
232.97 248.22 2.70 c p1
186.07 222.93 2.70 c p1
318.36 201.99 2.70 c p1
181.69 165.74 2.70 c p1
322.49 227.63 2.70 c p1
282.68 277.84 2.70 c p1
243.27 218.25 2.70 c p1
361.86 296.59 2.70 c p1
226.63 341.29 2.70 c p1
257.75 305.19 2.70 c p1
246.63 285.45 2.70 c p1
303.58 272.08 2.70 c p1
309.76 301.70 2.70 c p1
305.20 319.70 2.70 c p1
284.07 369.15 2.70 c p1
209.84 259.09 2.70 c p1
223.63 157.52 2.70 c p1
347.72 296.18 2.70 c p1
217.93 265.56 2.70 c p1
283.66 347.31 2.70 c p1
74.37 327.05 2.70 c p1
253.96 244.75 2.70 c p1
200.20 183.14 2.70 c p1
200.92 243.99 2.70 c p1
198.24 302.72 2.70 c p1
251.75 339.15 2.70 c p1
285.81 340.01 2.70 c p1
267.50 396.09 2.70 c p1
232.01 289.08 2.70 c p1
299.65 152.31 2.70 c p1
170.96 222.74 2.70 c p1
238.76 341.29 2.70 c p1
328.34 331.07 2.70 c p1
256.95 330.43 2.70 c p1
307.86 196.87 2.70 c p1
255.85 196.87 2.70 c p1
308.77 293.33 2.70 c p1
243.45 249.57 2.70 c p1
158.86 336.38 2.70 c p1
314.17 254.42 2.70 c p1
297.76 207.50 2.70 c p1
228.72 297.61 2.70 c p1
323.45 252.28 2.70 c p1
240.01 327.26 2.70 c p1
218.95 230.08 2.70 c p1
270.15 272.87 2.70 c p1
176.16 329.80 2.70 c p1
384.09 239.96 2.70 c p1
311.26 326.84 2.70 c p1
324.25 233.68 2.70 c p1
279.59 404.33 2.70 c p1
228.43 182.43 2.70 c p1
255.13 248.80 2.70 c p1
225.31 310.97 2.70 c p1
278.20 283.44 2.70 c p1
211.36 165.57 2.70 c p1
350.32 265.76 2.70 c p1
243.55 295.57 2.70 c p1
285.48 218.25 2.70 c p1
384.57 286.26 2.70 c p1
366.47 325.79 2.70 c p1
249.79 295.37 2.70 c p1
212.45 186.92 2.70 c p1
223.13 319.70 2.70 c p1
310.58 211.56 2.70 c p1
203.01 294.76 2.70 c p1
283.13 271.68 2.70 c p1
248.60 181.89 2.70 c p1
288.38 326.42 2.70 c p1
253.25 411.72 2.70 c p1
339.74 214.34 2.70 c p1
320.48 221.61 2.70 c p1
374.07 323.69 2.70 c p1
310.03 184.94 2.70 c p1
308.03 226.50 2.70 c p1
301.75 334.46 2.70 c p1
251.72 184.04 2.70 c p1
285.79 339.37 2.70 c p1
301.69 406.63 2.70 c p1
227.89 298.83 2.70 c p1
253.51 243.60 2.70 c p1
271.59 303.34 2.70 c p1
190.70 166.27 2.70 c p1
276.61 263.79 2.70 c p1
191.42 262.81 2.70 c p1
249.75 272.08 2.70 c p1
289.91 250.15 2.70 c p1
280.25 362.98 2.70 c p1
243.44 322.01 2.70 c p1
240.86 320.96 2.70 c p1
266.10 298.83 2.70 c p1
287.72 258.90 2.70 c p1
176.54 202.35 2.70 c p1
242.36 266.15 2.70 c p1
303.12 334.68 2.70 c p1
301.28 263.20 2.70 c p1
241.31 323.48 2.70 c p1
301.79 234.25 2.70 c p1
134.06 215.09 2.70 c p1
205.52 231.97 2.70 c p1
320.12 263.01 2.70 c p1
209.45 320.75 2.70 c p1
271.19 254.61 2.70 c p1
274.64 250.54 2.70 c p1
210.07 245.72 2.70 c p1
239.62 324.11 2.70 c p1
223.10 274.26 2.70 c p1
341.83 320.75 2.70 c p1
324.91 345.81 2.70 c p1
324.94 281.24 2.70 c p1
287.99 376.92 2.70 c p1
217.65 242.84 2.70 c p1
152.96 288.27 2.70 c p1
327.16 342.58 2.70 c p1
213.17 230.84 2.70 c p1
228.93 301.90 2.70 c p1
191.70 221.24 2.70 c p1
347.45 216.20 2.70 c p1
322.38 239.58 2.70 c p1
217.50 333.83 2.70 c p1
250.81 174.58 2.70 c p1
213.29 214.34 2.70 c p1
354.51 345.16 2.70 c p1
264.28 283.64 2.70 c p1
273.77 342.15 2.70 c p1
229.82 255.19 2.70 c p1
232.43 266.35 2.70 c p1
242.96 219.00 2.70 c p1
388.26 278.04 2.70 c p1
297.26 299.85 2.70 c p1
243.81 256.36 2.70 c p1
220.36 274.06 2.70 c p1
192.04 321.17 2.70 c p1
289.14 258.70 2.70 c p1
182.12 317.41 2.70 c p1
228.71 307.25 2.70 c p1
262.28 234.82 2.70 c p1
387.49 210.82 2.70 c p1
221.47 224.80 2.70 c p1
334.64 260.65 2.70 c p1
373.44 220.30 2.70 c p1
272.63 178.85 2.70 c p1
283.00 171.74 2.70 c p1
167.11 339.15 2.70 c p1
379.12 267.73 2.70 c p1
280.60 227.63 2.70 c p1
272.46 313.45 2.70 c p1
315.16 302.72 2.70 c p1
335.03 183.14 2.70 c p1
333.97 359.70 2.70 c p1
321.44 177.07 2.70 c p1
248.85 383.42 2.70 c p1
259.89 161.54 2.70 c p1
314.84 253.83 2.70 c p1
267.15 208.79 2.70 c p1
303.21 298.83 2.70 c p1
292.50 232.92 2.70 c p1
305.58 277.44 2.70 c p1
281.10 264.58 2.70 c p1
263.50 214.71 2.70 c p1
281.10 256.56 2.70 c p1
369.61 273.86 2.70 c p1
250.87 198.33 2.70 c p1
210.58 295.57 2.70 c p1
178.32 235.39 2.70 c p1
233.11 304.57 2.70 c p1
248.98 272.87 2.70 c p1
455.17 237.10 2.70 c p1
290.35 300.67 2.70 c p1
252.39 244.37 2.70 c p1
307.60 239.01 2.70 c p1
257.07 276.65 2.70 c p1
329.86 321.59 2.70 c p1
231.66 205.29 2.70 c p1
292.22 209.71 2.70 c p1
317.17 270.29 2.70 c p1
309.62 330.01 2.70 c p1
324.71 268.52 2.70 c p1
329.22 323.69 2.70 c p1
242.83 281.04 2.70 c p1
259.68 159.61 2.70 c p1
215.94 343.65 2.70 c p1
322.06 208.97 2.70 c p1
373.51 257.53 2.70 c p1
182.21 260.85 2.70 c p1
353.75 171.57 2.70 c p1
282.91 237.86 2.70 c p1
128.37 275.85 2.70 c p1
292.45 161.89 2.70 c p1
272.09 263.79 2.70 c p1
302.55 148.51 2.70 c p1
238.49 196.69 2.70 c p1
300.85 309.31 2.70 c p1
247.91 280.04 2.70 c p1
230.41 336.59 2.70 c p1
220.06 356.42 2.70 c p1
285.85 236.15 2.70 c p1
194.93 314.28 2.70 c p1
217.38 167.86 2.70 c p1
272.66 334.46 2.70 c p1
298.07 251.89 2.70 c p1
286.40 146.61 2.70 c p1
281.17 308.07 2.70 c p1
333.15 223.30 2.70 c p1
266.40 235.39 2.70 c p1
306.46 289.89 2.70 c p1
280.66 317.62 2.70 c p1
139.27 328.32 2.70 c p1
306.90 271.08 2.70 c p1
215.20 258.70 2.70 c p1
281.50 255.19 2.70 c p1
240.80 300.47 2.70 c p1
314.55 315.74 2.70 c p1
293.30 162.59 2.70 c p1
250.57 272.67 2.70 c p1
271.32 266.35 2.70 c p1
248.71 262.81 2.70 c p1
308.07 145.75 2.70 c p1
245.43 312.21 2.70 c p1
365.43 231.03 2.70 c p1
259.77 209.34 2.70 c p1
193.05 280.04 2.70 c p1
141.96 232.92 2.70 c p1
311.09 282.64 2.70 c p1
247.81 308.69 2.70 c p1
223.90 269.70 2.70 c p1
90.50 260.46 2.70 c p1
281.99 304.78 2.70 c p1
241.32 284.05 2.70 c p1
235.80 285.45 2.70 c p1
303.29 259.09 2.70 c p1
259.84 232.92 2.70 c p1
315.79 198.33 2.70 c p1
257.95 245.52 2.70 c p1
338.50 309.93 2.70 c p1
339.64 252.86 2.70 c p1
311.85 245.33 2.70 c p1
195.22 322.85 2.70 c p1
154.57 198.15 2.70 c p1
420.43 226.87 2.70 c p1
310.53 250.93 2.70 c p1
169.84 236.53 2.70 c p1
264.29 282.64 2.70 c p1
366.56 358.38 2.70 c p1
220.75 282.44 2.70 c p1
364.96 233.11 2.70 c p1
240.21 349.69 2.70 c p1
274.16 280.84 2.70 c p1
253.86 344.08 2.70 c p1
298.59 267.73 2.70 c p1
243.51 246.87 2.70 c p1
184.58 352.29 2.70 c p1
313.63 306.22 2.70 c p1
224.15 271.28 2.70 c p1
302.27 237.10 2.70 c p1
347.02 254.22 2.70 c p1
296.10 228.57 2.70 c p1
330.79 213.23 2.70 c p1
363.40 180.64 2.70 c p1
300.10 88.19 2.70 c p1
179.39 186.02 2.70 c p1
184.89 249.38 2.70 c p1
246.97 272.47 2.70 c p1
300.95 233.11 2.70 c p1
231.00 381.84 2.70 c p1
258.78 201.44 2.70 c p1
287.15 277.44 2.70 c p1
298.52 322.85 2.70 c p1
322.31 208.24 2.70 c p1
247.68 239.77 2.70 c p1
223.68 244.56 2.70 c p1
265.10 241.30 2.70 c p1
217.64 329.38 2.70 c p1
264.98 293.54 2.70 c p1
234.38 301.90 2.70 c p1
213.28 281.44 2.70 c p1
243.11 236.34 2.70 c p1
115.03 213.04 2.70 c p1
239.41 245.33 2.70 c p1
306.85 144.21 2.70 c p1
330.18 256.17 2.70 c p1
226.28 275.25 2.70 c p1
350.30 387.69 2.70 c p1
257.13 306.42 2.70 c p1
384.28 163.46 2.70 c p1
258.65 221.80 2.70 c p1
299.08 276.84 2.70 c p1
276.50 298.02 2.70 c p1
241.94 330.43 2.70 c p1
223.09 180.28 2.70 c p1
304.79 284.05 2.70 c p1
218.11 186.56 2.70 c p1
160.89 269.90 2.70 c p1
246.72 329.38 2.70 c p1
253.82 329.17 2.70 c p1
323.79 172.98 2.70 c p1
329.30 306.83 2.70 c p1
420.21 195.60 2.70 c p1
257.10 206.58 2.70 c p1
284.90 213.23 2.70 c p1
110.69 376.48 2.70 c p1
317.67 357.07 2.70 c p1
227.39 375.59 2.70 c p1
349.65 227.81 2.70 c p1
314.12 266.35 2.70 c p1
341.68 301.49 2.70 c p1
192.04 355.55 2.70 c p1
144.67 222.36 2.70 c p1
317.66 215.64 2.70 c p1
277.33 247.45 2.70 c p1
321.59 223.11 2.70 c p1
137.89 367.38 2.70 c p1
256.08 325.58 2.70 c p1
320.67 282.24 2.70 c p1
260.99 287.67 2.70 c p1
199.78 325.16 2.70 c p1
220.77 232.73 2.70 c p1
320.43 244.37 2.70 c p1
234.95 284.05 2.70 c p1
341.78 279.24 2.70 c p1
169.43 343.87 2.70 c p1
258.07 257.72 2.70 c p1
192.17 287.87 2.70 c p1
168.39 342.15 2.70 c p1
231.47 278.64 2.70 c p1
251.01 360.13 2.70 c p1
220.43 326.21 2.70 c p1
228.03 221.05 2.70 c p1
321.88 365.62 2.70 c p1
217.71 117.34 2.70 c p1
383.76 236.91 2.70 c p1
316.27 241.49 2.70 c p1
174.86 219.56 2.70 c p1
312.77 200.71 2.70 c p1
272.75 270.10 2.70 c p1
115.53 266.54 2.70 c p1
274.47 285.05 2.70 c p1
260.46 263.01 2.70 c p1
289.37 179.21 2.70 c p1
294.87 355.33 2.70 c p1
260.98 305.80 2.70 c p1
290.82 296.18 2.70 c p1
385.96 286.46 2.70 c p1
256.13 178.49 2.70 c p1
259.98 293.33 2.70 c p1
310.65 324.74 2.70 c p1
177.29 304.36 2.70 c p1
242.54 347.96 2.70 c p1
288.32 246.10 2.70 c p1
234.40 173.69 2.70 c p1
286.75 311.59 2.70 c p1
287.29 243.60 2.70 c p1
249.81 280.64 2.70 c p1
166.08 99.21 2.70 c p1
257.05 274.06 2.70 c p1
324.77 229.51 2.70 c p1
233.68 344.94 2.70 c p1
255.69 337.45 2.70 c p1
385.89 194.33 2.70 c p1
215.68 338.30 2.70 c p1
319.42 237.10 2.70 c p1
210.59 185.30 2.70 c p1
272.33 274.66 2.70 c p1
244.85 260.46 2.70 c p1
308.44 208.60 2.70 c p1
350.78 245.52 2.70 c p1
241.35 285.45 2.70 c p1
236.22 261.44 2.70 c p1
311.21 223.49 2.70 c p1
191.75 236.72 2.70 c p1
266.73 339.58 2.70 c p1
334.26 254.80 2.70 c p1
207.33 169.62 2.70 c p1
296.81 329.59 2.70 c p1
271.82 364.74 2.70 c p1
308.21 208.05 2.70 c p1
350.60 212.49 2.70 c p1
197.15 291.71 2.70 c p1
264.73 255.19 2.70 c p1
296.39 276.45 2.70 c p1
224.94 283.24 2.70 c p1
233.56 330.43 2.70 c p1
260.13 297.81 2.70 c p1
254.01 299.04 2.70 c p1
408.37 239.39 2.70 c p1
194.73 206.02 2.70 c p1
227.31 438.33 2.70 c p1
212.93 216.02 2.70 c p1
269.92 198.33 2.70 c p1
194.22 323.06 2.70 c p1
427.61 356.86 2.70 c p1
297.53 258.11 2.70 c p1
317.06 241.49 2.70 c p1
247.83 276.84 2.70 c p1
307.80 212.86 2.70 c p1
264.26 185.48 2.70 c p1
334.58 236.72 2.70 c p1
245.26 294.55 2.70 c p1
334.81 334.89 2.70 c p1
265.47 219.00 2.70 c p1
245.85 236.91 2.70 c p1
234.53 264.38 2.70 c p1
254.58 407.56 2.70 c p1
307.12 195.96 2.70 c p1
272.55 294.35 2.70 c p1
242.76 301.49 2.70 c p1
242.34 207.31 2.70 c p1
272.05 153.52 2.70 c p1
214.74 260.07 2.70 c p1
270.11 286.46 2.70 c p1
281.23 327.69 2.70 c p1
296.21 334.89 2.70 c p1
295.96 390.18 2.70 c p1
380.21 264.77 2.70 c p1
248.80 272.67 2.70 c p1
346.90 246.87 2.70 c p1
341.35 317.62 2.70 c p1
292.07 365.40 2.70 c p1
237.57 304.78 2.70 c p1
361.41 191.61 2.70 c p1
234.90 217.50 2.70 c p1
291.46 197.24 2.70 c p1
164.92 259.87 2.70 c p1
329.46 283.85 2.70 c p1
248.11 343.44 2.70 c p1
243.44 271.08 2.70 c p1
258.20 286.66 2.70 c p1
171.81 234.06 2.70 c p1
316.29 329.59 2.70 c p1
228.16 279.44 2.70 c p1
283.90 311.79 2.70 c p1
339.52 243.03 2.70 c p1
166.47 250.93 2.70 c p1
250.07 284.45 2.70 c p1
287.19 316.16 2.70 c p1
218.24 289.49 2.70 c p1
169.23 187.28 2.70 c p1
285.82 234.63 2.70 c p1
277.61 289.08 2.70 c p1
226.93 208.24 2.70 c p1
245.22 324.32 2.70 c p1
218.04 288.68 2.70 c p1
233.33 402.72 2.70 c p1
149.89 155.61 2.70 c p1
171.82 248.03 2.70 c p1
182.71 243.03 2.70 c p1
233.11 244.37 2.70 c p1
282.31 263.01 2.70 c p1
252.46 221.05 2.70 c p1
234.27 221.43 2.70 c p1
332.57 258.90 2.70 c p1
208.31 317.41 2.70 c p1
303.38 257.72 2.70 c p1
288.83 236.72 2.70 c p1
220.92 246.10 2.70 c p1
221.52 274.46 2.70 c p1
247.66 274.06 2.70 c p1
393.00 302.72 2.70 c p1
317.18 334.04 2.70 c p1
360.84 250.15 2.70 c p1
210.73 301.70 2.70 c p1
215.86 282.64 2.70 c p1
303.78 306.22 2.70 c p1
237.76 293.54 2.70 c p1
225.39 256.56 2.70 c p1
274.71 252.86 2.70 c p1
182.12 257.53 2.70 c p1
224.92 303.13 2.70 c p1
263.91 270.10 2.70 c p1
216.93 165.74 2.70 c p1
312.32 313.66 2.70 c p1
179.14 260.65 2.70 c p1
214.91 226.31 2.70 c p1
256.47 224.61 2.70 c p1
207.11 344.73 2.70 c p1
279.43 236.53 2.70 c p1
202.93 336.81 2.70 c p1
297.60 341.72 2.70 c p1
265.19 262.22 2.70 c p1
357.76 253.64 2.70 c p1
237.78 263.20 2.70 c p1
183.09 223.49 2.70 c p1
234.23 296.38 2.70 c p1
242.40 251.89 2.70 c p1
207.49 262.81 2.70 c p1
214.87 287.47 2.70 c p1
236.77 246.49 2.70 c p1
352.99 335.53 2.70 c p1
238.54 224.99 2.70 c p1
211.18 213.04 2.70 c p1
375.86 342.80 2.70 c p1
179.82 165.92 2.70 c p1
260.26 299.65 2.70 c p1
319.30 248.22 2.70 c p1
250.36 286.06 2.70 c p1
289.84 241.49 2.70 c p1
219.33 179.39 2.70 c p1
281.61 148.16 2.70 c p1
236.81 297.40 2.70 c p1
256.38 276.84 2.70 c p1
297.62 334.68 2.70 c p1
235.41 308.07 2.70 c p1
340.03 250.93 2.70 c p1
193.50 176.89 2.70 c p1
272.31 289.89 2.70 c p1
203.33 318.03 2.70 c p1
310.46 210.82 2.70 c p1
207.11 260.46 2.70 c p1
322.61 260.26 2.70 c p1
346.44 218.25 2.70 c p1
214.94 239.01 2.70 c p1
329.49 250.73 2.70 c p1
289.90 344.73 2.70 c p1
300.07 270.89 2.70 c p1
253.36 275.25 2.70 c p1
224.09 201.44 2.70 c p1
290.54 165.39 2.70 c p1
253.53 166.80 2.70 c p1
238.75 305.19 2.70 c p1
268.41 313.87 2.70 c p1
261.00 207.87 2.70 c p1
300.83 325.16 2.70 c p1
290.40 191.61 2.70 c p1
370.02 330.22 2.70 c p1
247.71 286.86 2.70 c p1
249.79 304.57 2.70 c p1
195.53 283.64 2.70 c p1
287.13 176.00 2.70 c p1
297.66 242.07 2.70 c p1
202.17 326.00 2.70 c p1
351.37 213.23 2.70 c p1
264.27 221.80 2.70 c p1
230.94 247.64 2.70 c p1
152.75 309.72 2.70 c p1
257.59 249.96 2.70 c p1
338.94 315.74 2.70 c p1
254.61 349.47 2.70 c p1
244.61 312.62 2.70 c p1
247.62 341.94 2.70 c p1
229.39 219.00 2.70 c p1
132.64 253.06 2.70 c p1
163.85 313.45 2.70 c p1
212.55 257.72 2.70 c p1
405.90 220.49 2.70 c p1
275.86 222.36 2.70 c p1
209.17 263.59 2.70 c p1
344.42 229.32 2.70 c p1
203.29 310.34 2.70 c p1
348.73 280.24 2.70 c p1
342.51 263.79 2.70 c p1
302.25 232.54 2.70 c p1
243.23 282.84 2.70 c p1
218.24 330.43 2.70 c p1
271.67 304.78 2.70 c p1
210.35 168.91 2.70 c p1
203.45 228.19 2.70 c p1
239.02 186.20 2.70 c p1
261.64 306.22 2.70 c p1
239.67 192.88 2.70 c p1
191.89 134.65 2.70 c p1
290.92 236.72 2.70 c p1
187.88 326.21 2.70 c p1
194.41 263.40 2.70 c p1
313.89 162.06 2.70 c p1
238.65 362.32 2.70 c p1
368.70 271.88 2.70 c p1
245.60 221.80 2.70 c p1
276.37 215.09 2.70 c p1
277.41 260.26 2.70 c p1
277.32 194.69 2.70 c p1
244.87 231.03 2.70 c p1
195.56 227.63 2.70 c p1
306.73 291.10 2.70 c p1
212.12 185.12 2.70 c p1
199.28 227.06 2.70 c p1
253.22 264.38 2.70 c p1
292.05 236.53 2.70 c p1
336.50 315.74 2.70 c p1
358.92 200.71 2.70 c p1
228.31 240.35 2.70 c p1
210.21 110.21 2.70 c p1
299.27 116.17 2.70 c p1
220.50 231.21 2.70 c p1
83.80 279.64 2.70 c p1
213.58 325.16 2.70 c p1
185.80 211.56 2.70 c p1
356.77 296.38 2.70 c p1
230.06 298.42 2.70 c p1
193.80 228.19 2.70 c p1
199.49 328.11 2.70 c p1
258.04 231.59 2.70 c p1
292.58 190.70 2.70 c p1
344.35 199.97 2.70 c p1
355.30 357.51 2.70 c p1
275.97 255.58 2.70 c p1
348.76 276.05 2.70 c p1
237.44 269.50 2.70 c p1
284.95 197.78 2.70 c p1
263.51 277.04 2.70 c p1
233.55 253.25 2.70 c p1
309.03 174.05 2.70 c p1
294.75 269.70 2.70 c p1
142.20 322.22 2.70 c p1
245.93 291.31 2.70 c p1
235.08 221.61 2.70 c p1
160.65 418.24 2.70 c p1
224.00 247.26 2.70 c p1
254.35 227.44 2.70 c p1
189.36 148.68 2.70 c p1
270.13 334.89 2.70 c p1
307.93 172.80 2.70 c p1
311.52 339.58 2.70 c p1
347.17 303.54 2.70 c p1
215.27 338.30 2.70 c p1
221.90 322.64 2.70 c p1
325.30 176.71 2.70 c p1
393.91 270.89 2.70 c p1
312.39 273.86 2.70 c p1
229.16 228.38 2.70 c p1
345.53 219.74 2.70 c p1
300.08 272.27 2.70 c p1
205.48 154.04 2.70 c p1
299.26 327.05 2.70 c p1
266.75 298.83 2.70 c p1
398.61 342.58 2.70 c p1
298.64 293.33 2.70 c p1
234.36 247.45 2.70 c p1
299.17 314.08 2.70 c p1
265.45 193.42 2.70 c p1
261.20 295.16 2.70 c p1
288.78 266.54 2.70 c p1
219.60 237.67 2.70 c p1
276.78 248.22 2.70 c p1
276.32 256.56 2.70 c p1
263.37 239.01 2.70 c p1
291.87 297.40 2.70 c p1
291.78 171.39 2.70 c p1
291.30 215.83 2.70 c p1
272.98 303.54 2.70 c p1
217.40 232.16 2.70 c p1
183.46 218.81 2.70 c p1
294.49 316.37 2.70 c p1
262.42 235.01 2.70 c p1
338.94 223.11 2.70 c p1
271.43 318.03 2.70 c p1
227.75 179.92 2.70 c p1
183.41 248.99 2.70 c p1
261.21 356.86 2.70 c p1
217.81 295.37 2.70 c p1
300.67 258.70 2.70 c p1
365.57 308.69 2.70 c p1
247.65 247.45 2.70 c p1
245.59 196.51 2.70 c p1
323.83 312.62 2.70 c p1
289.80 278.64 2.70 c p1
219.30 223.11 2.70 c p1
243.72 178.49 2.70 c p1
235.54 244.95 2.70 c p1
152.16 251.31 2.70 c p1
239.11 239.58 2.70 c p1
248.37 199.61 2.70 c p1
230.22 285.86 2.70 c p1
179.52 273.86 2.70 c p1
229.01 299.04 2.70 c p1
158.81 210.27 2.70 c p1
349.49 315.32 2.70 c p1
276.20 320.54 2.70 c p1
226.37 165.57 2.70 c p1
201.61 253.64 2.70 c p1
201.48 286.46 2.70 c p1
216.27 320.54 2.70 c p1
289.33 349.26 2.70 c p1
188.36 204.74 2.70 c p1
230.80 326.00 2.70 c p1
333.67 293.94 2.70 c p1
327.18 388.15 2.70 c p1
297.63 200.89 2.70 c p1
357.76 270.29 2.70 c p1
334.73 196.51 2.70 c p1
241.27 239.39 2.70 c p1
220.73 265.56 2.70 c p1
342.81 235.96 2.70 c p1
441.05 265.95 2.70 c p1
259.44 189.80 2.70 c p1
307.38 263.01 2.70 c p1
358.23 308.28 2.70 c p1
280.88 227.25 2.70 c p1
192.00 255.78 2.70 c p1
143.50 340.22 2.70 c p1
306.06 208.60 2.70 c p1
312.25 245.72 2.70 c p1
339.98 194.15 2.70 c p1
256.03 190.16 2.70 c p1
246.05 217.50 2.70 c p1
203.84 264.58 2.70 c p1
218.22 154.56 2.70 c p1
198.01 154.22 2.70 c p1
322.46 330.86 2.70 c p1
245.44 113.52 2.70 c p1
291.54 258.31 2.70 c p1
242.32 229.13 2.70 c p1
224.66 231.03 2.70 c p1
292.60 319.29 2.70 c p1
231.91 306.63 2.70 c p1
330.71 261.44 2.70 c p1
324.33 305.60 2.70 c p1
322.83 293.13 2.70 c p1
221.58 155.61 2.70 c p1
261.75 298.42 2.70 c p1
145.08 329.59 2.70 c p1
357.59 164.87 2.70 c p1
329.49 227.63 2.70 c p1
326.37 293.94 2.70 c p1
345.46 205.47 2.70 c p1
217.68 248.99 2.70 c p1
359.18 269.90 2.70 c p1
302.01 261.24 2.70 c p1
349.31 282.64 2.70 c p1
249.56 326.42 2.70 c p1
302.33 209.16 2.70 c p1
288.09 318.66 2.70 c p1
217.23 300.88 2.70 c p1
230.90 158.74 2.70 c p1
219.52 201.44 2.70 c p1
210.99 244.37 2.70 c p1
278.15 134.99 2.70 c p1
212.25 305.39 2.70 c p1
268.92 346.88 2.70 c p1
208.96 144.04 2.70 c p1
192.51 260.46 2.70 c p1
288.75 223.68 2.70 c p1
302.35 226.50 2.70 c p1
95.05 280.44 2.70 c p1
213.60 219.74 2.70 c p1
332.77 315.74 2.70 c p1
235.30 271.48 2.70 c p1
270.21 303.95 2.70 c p1
256.47 295.16 2.70 c p1
257.96 318.87 2.70 c p1
326.22 258.90 2.70 c p1
283.22 299.45 2.70 c p1
237.32 310.97 2.70 c p1
238.56 270.69 2.70 c p1
251.65 345.81 2.70 c p1
166.62 340.87 2.70 c p1
234.77 384.31 2.70 c p1
303.29 348.18 2.70 c p1
393.55 276.65 2.70 c p1
256.06 372.92 2.70 c p1
215.32 174.22 2.70 c p1
298.64 219.74 2.70 c p1
273.34 294.35 2.70 c p1
269.63 319.91 2.70 c p1
327.71 242.45 2.70 c p1
331.60 144.72 2.70 c p1
315.82 232.92 2.70 c p1
351.27 269.11 2.70 c p1
393.18 197.24 2.70 c p1
440.04 362.98 2.70 c p1
270.72 177.42 2.70 c p1
272.00 297.40 2.70 c p1
289.09 271.08 2.70 c p1
272.72 204.74 2.70 c p1
252.13 195.42 2.70 c p1
201.72 309.10 2.70 c p1
368.38 230.27 2.70 c p1
264.12 300.88 2.70 c p1
233.06 328.11 2.70 c p1
357.41 245.14 2.70 c p1
325.04 262.22 2.70 c p1
230.91 279.84 2.70 c p1
342.34 269.30 2.70 c p1
139.57 252.28 2.70 c p1
232.31 285.86 2.70 c p1
373.73 291.71 2.70 c p1
303.94 265.17 2.70 c p1
259.16 291.10 2.70 c p1
133.50 239.96 2.70 c p1
298.60 253.44 2.70 c p1
275.60 339.58 2.70 c p1
250.49 384.31 2.70 c p1
327.98 369.59 2.70 c p1
277.24 332.34 2.70 c p1
366.43 287.87 2.70 c p1
340.16 252.28 2.70 c p1
308.21 254.22 2.70 c p1
372.47 191.25 2.70 c p1
234.45 171.92 2.70 c p1
295.28 263.01 2.70 c p1
356.11 287.27 2.70 c p1
298.62 285.45 2.70 c p1
268.59 279.84 2.70 c p1
260.69 219.00 2.70 c p1
353.36 230.65 2.70 c p1
159.38 215.83 2.70 c p1
213.23 247.26 2.70 c p1
274.15 264.18 2.70 c p1
279.28 288.68 2.70 c p1
351.35 323.90 2.70 c p1
285.15 247.06 2.70 c p1
353.25 188.18 2.70 c p1
284.91 124.19 2.70 c p1
253.23 193.78 2.70 c p1
223.21 229.89 2.70 c p1
295.54 230.65 2.70 c p1
268.10 278.04 2.70 c p1
287.97 165.22 2.70 c p1
307.37 242.84 2.70 c p1
257.31 348.39 2.70 c p1
201.94 221.43 2.70 c p1
277.06 176.71 2.70 c p1
322.86 264.58 2.70 c p1
227.88 287.67 2.70 c p1
235.90 378.26 2.70 c p1
241.50 224.05 2.70 c p1
251.03 237.67 2.70 c p1
212.78 233.49 2.70 c p1
250.61 332.34 2.70 c p1
240.34 239.01 2.70 c p1
262.78 220.30 2.70 c p1
305.93 333.83 2.70 c p1
357.57 299.65 2.70 c p1
320.41 378.49 2.70 c p1
405.37 410.56 2.70 c p1
214.25 299.85 2.70 c p1
284.11 305.60 2.70 c p1
212.94 244.95 2.70 c p1
289.85 320.75 2.70 c p1
189.93 246.49 2.70 c p1
328.12 281.04 2.70 c p1
237.65 325.58 2.70 c p1
357.56 288.27 2.70 c p1
276.29 261.24 2.70 c p1
262.15 260.26 2.70 c p1
210.81 267.53 2.70 c p1
320.61 318.66 2.70 c p1
232.91 291.71 2.70 c p1
310.31 261.63 2.70 c p1
339.55 203.09 2.70 c p1
313.04 242.84 2.70 c p1
211.80 154.74 2.70 c p1
272.57 246.87 2.70 c p1
183.44 279.44 2.70 c p1
261.29 159.44 2.70 c p1
194.44 208.79 2.70 c p1
296.87 273.66 2.70 c p1
293.94 323.27 2.70 c p1
324.29 399.97 2.70 c p1
274.04 300.67 2.70 c p1
278.39 293.33 2.70 c p1
276.85 158.57 2.70 c p1
457.68 234.06 2.70 c p1
314.91 349.47 2.70 c p1
194.22 347.31 2.70 c p1
284.83 323.27 2.70 c p1
176.58 259.48 2.70 c p1
210.98 222.74 2.70 c p1
206.41 221.24 2.70 c p1
272.62 284.65 2.70 c p1
192.17 317.20 2.70 c p1
178.45 258.90 2.70 c p1
192.68 232.35 2.70 c p1
271.07 287.06 2.70 c p1
257.84 324.95 2.70 c p1
238.65 373.58 2.70 c p1
277.07 299.04 2.70 c p1
257.34 266.35 2.70 c p1
254.52 299.45 2.70 c p1
239.87 206.95 2.70 c p1
290.69 335.95 2.70 c p1
322.63 345.59 2.70 c p1
140.21 213.41 2.70 c p1
246.48 294.55 2.70 c p1
222.72 286.26 2.70 c p1
393.76 260.07 2.70 c p1
310.34 388.82 2.70 c p1
197.54 282.24 2.70 c p1
307.84 301.90 2.70 c p1
223.85 202.72 2.70 c p1
240.30 369.82 2.70 c p1
249.17 315.12 2.70 c p1
194.73 170.50 2.70 c p1
240.42 303.95 2.70 c p1
274.02 305.39 2.70 c p1
357.35 317.20 2.70 c p1
222.32 270.49 2.70 c p1
142.95 303.54 2.70 c p1
313.95 194.69 2.70 c p1
252.97 228.00 2.70 c p1
287.61 329.17 2.70 c p1
276.02 316.99 2.70 c p1
263.38 310.76 2.70 c p1
247.23 131.77 2.70 c p1
219.70 179.39 2.70 c p1
173.44 247.45 2.70 c p1
314.39 277.84 2.70 c p1
287.55 259.09 2.70 c p1
316.88 320.12 2.70 c p1
250.87 298.63 2.70 c p1
251.90 351.86 2.70 c p1
219.16 222.36 2.70 c p1
211.49 206.21 2.70 c p1
156.39 376.92 2.70 c p1
318.26 347.31 2.70 c p1
247.18 283.44 2.70 c p1
163.05 252.09 2.70 c p1
178.59 279.04 2.70 c p1
303.39 310.14 2.70 c p1
227.30 364.96 2.70 c p1
279.58 329.17 2.70 c p1
228.93 216.76 2.70 c p1
319.42 161.71 2.70 c p1
295.17 308.69 2.70 c p1
297.47 228.19 2.70 c p1
194.10 234.82 2.70 c p1
269.64 285.45 2.70 c p1
261.86 191.61 2.70 c p1
215.11 195.24 2.70 c p1
278.12 307.66 2.70 c p1
262.07 340.44 2.70 c p1
347.95 272.27 2.70 c p1
314.09 223.30 2.70 c p1
271.93 178.85 2.70 c p1
293.24 269.11 2.70 c p1
293.60 219.37 2.70 c p1
245.01 204.19 2.70 c p1
225.79 240.15 2.70 c p1
317.16 273.27 2.70 c p1
346.35 382.29 2.70 c p1
267.54 367.83 2.70 c p1
205.12 347.53 2.70 c p1
427.61 196.51 2.70 c p1
273.21 282.04 2.70 c p1
283.41 306.83 2.70 c p1
268.71 261.05 2.70 c p1
214.98 297.40 2.70 c p1
271.30 280.24 2.70 c p1
279.49 246.49 2.70 c p1
349.53 208.05 2.70 c p1
235.30 387.24 2.70 c p1
227.99 315.95 2.70 c p1
359.17 271.08 2.70 c p1
308.96 272.08 2.70 c p1
231.30 273.27 2.70 c p1
254.28 228.19 2.70 c p1
291.07 352.72 2.70 c p1
245.80 263.20 2.70 c p1
195.16 193.42 2.70 c p1
323.14 257.33 2.70 c p1
315.02 289.89 2.70 c p1
293.88 205.29 2.70 c p1
96.39 355.11 2.70 c p1
342.05 206.21 2.70 c p1
268.84 307.25 2.70 c p1
287.83 282.04 2.70 c p1
257.94 235.01 2.70 c p1
339.03 352.29 2.70 c p1
328.80 268.12 2.70 c p1
342.75 210.08 2.70 c p1
246.54 261.44 2.70 c p1
284.84 295.98 2.70 c p1
203.16 276.65 2.70 c p1
197.36 267.33 2.70 c p1
196.97 302.72 2.70 c p1
305.93 304.57 2.70 c p1
231.23 328.74 2.70 c p1
292.61 254.03 2.70 c p1
256.26 333.61 2.70 c p1
203.15 271.68 2.70 c p1
279.08 225.37 2.70 c p1
354.00 271.88 2.70 c p1
311.14 285.86 2.70 c p1
276.34 174.22 2.70 c p1
314.35 307.45 2.70 c p1
349.00 204.00 2.70 c p1
253.68 266.15 2.70 c p1
268.61 278.04 2.70 c p1
172.21 278.04 2.70 c p1
273.47 288.68 2.70 c p1
290.64 235.20 2.70 c p1
181.45 309.10 2.70 c p1
254.22 338.30 2.70 c p1
239.26 224.24 2.70 c p1
219.75 293.54 2.70 c p1
339.33 262.61 2.70 c p1
255.28 220.30 2.70 c p1
303.86 265.95 2.70 c p1
187.19 245.33 2.70 c p1
238.58 242.26 2.70 c p1
265.64 170.33 2.70 c p1
279.44 178.85 2.70 c p1
180.16 396.32 2.70 c p1
283.90 201.80 2.70 c p1
256.75 271.28 2.70 c p1
194.05 243.03 2.70 c p1
193.80 372.25 2.70 c p1
290.65 335.95 2.70 c p1
323.11 321.80 2.70 c p1
364.86 211.19 2.70 c p1
252.59 266.54 2.70 c p1
307.42 156.13 2.70 c p1
315.89 260.07 2.70 c p1
246.01 204.74 2.70 c p1
263.22 319.29 2.70 c p1
310.34 283.85 2.70 c p1
296.00 272.08 2.70 c p1
279.23 229.32 2.70 c p1
221.30 276.65 2.70 c p1
298.84 265.36 2.70 c p1
216.44 334.04 2.70 c p1
221.29 381.62 2.70 c p1
304.60 241.69 2.70 c p1
190.81 165.39 2.70 c p1
321.01 400.66 2.70 c p1
245.78 305.39 2.70 c p1
256.30 321.59 2.70 c p1
292.69 342.15 2.70 c p1
311.58 262.42 2.70 c p1
298.04 341.51 2.70 c p1
259.88 283.85 2.70 c p1
89.39 355.98 2.70 c p1
327.09 207.31 2.70 c p1
215.00 253.64 2.70 c p1
276.59 304.78 2.70 c p1
202.44 252.86 2.70 c p1
187.45 269.11 2.70 c p1
199.93 306.22 2.70 c p1
251.13 242.07 2.70 c p1
251.61 271.48 2.70 c p1
344.12 326.63 2.70 c p1
357.70 228.57 2.70 c p1
225.02 321.17 2.70 c p1
249.25 287.06 2.70 c p1
344.67 280.24 2.70 c p1
213.44 212.49 2.70 c p1
300.61 196.69 2.70 c p1
215.60 166.45 2.70 c p1
293.07 264.58 2.70 c p1
185.95 271.48 2.70 c p1
181.05 221.43 2.70 c p1
250.98 312.42 2.70 c p1
250.74 161.19 2.70 c p1
218.25 278.44 2.70 c p1
261.84 241.69 2.70 c p1
374.76 339.80 2.70 c p1
304.82 260.46 2.70 c p1
340.70 283.64 2.70 c p1
242.24 193.97 2.70 c p1
273.62 279.04 2.70 c p1
178.07 238.63 2.70 c p1
323.15 313.45 2.70 c p1
201.15 248.41 2.70 c p1
288.98 141.47 2.70 c p1
250.22 335.32 2.70 c p1
285.99 269.11 2.70 c p1
305.46 263.01 2.70 c p1
320.27 194.33 2.70 c p1
281.95 342.37 2.70 c p1
319.52 229.51 2.70 c p1
373.07 326.63 2.70 c p1
318.28 302.11 2.70 c p1
286.70 365.62 2.70 c p1
397.22 307.45 2.70 c p1
269.43 280.44 2.70 c p1
276.44 234.25 2.70 c p1
283.14 213.04 2.70 c p1
308.87 281.44 2.70 c p1
335.24 310.34 2.70 c p1
303.56 274.06 2.70 c p1
363.88 252.86 2.70 c p1
226.12 297.40 2.70 c p1
334.83 279.24 2.70 c p1
183.01 173.34 2.70 c p1
301.64 299.65 2.70 c p1
267.94 267.53 2.70 c p1
271.95 275.45 2.70 c p1
412.83 269.11 2.70 c p1
249.50 293.54 2.70 c p1
344.34 315.53 2.70 c p1
319.54 258.70 2.70 c p1
292.39 309.93 2.70 c p1
305.05 191.97 2.70 c p1
229.77 253.25 2.70 c p1
186.88 316.57 2.70 c p1
272.27 287.06 2.70 c p1
227.43 263.40 2.70 c p1
324.12 244.56 2.70 c p1
281.76 314.49 2.70 c p1
223.69 359.91 2.70 c p1
270.85 129.07 2.70 c p1
266.68 310.34 2.70 c p1
200.92 213.04 2.70 c p1
301.90 255.39 2.70 c p1
354.23 349.26 2.70 c p1
373.94 300.88 2.70 c p1
365.60 327.69 2.70 c p1
248.34 228.38 2.70 c p1
247.91 203.45 2.70 c p1
258.81 284.85 2.70 c p1
312.73 272.08 2.70 c p1
275.54 243.99 2.70 c p1
180.78 246.68 2.70 c p1
143.49 366.94 2.70 c p1
273.19 235.77 2.70 c p1
311.17 235.01 2.70 c p1
226.41 289.08 2.70 c p1
209.04 402.49 2.70 c p1
233.62 236.91 2.70 c p1
355.30 205.66 2.70 c p1
331.47 296.59 2.70 c p1
338.61 261.83 2.70 c p1
187.55 320.75 2.70 c p1
288.86 232.35 2.70 c p1
256.47 213.23 2.70 c p1
238.32 259.48 2.70 c p1
239.29 176.18 2.70 c p1
260.36 267.33 2.70 c p1
213.48 246.87 2.70 c p1
204.67 273.27 2.70 c p1
167.16 321.38 2.70 c p1
282.27 258.11 2.70 c p1
255.42 263.01 2.70 c p1
77.21 258.51 2.70 c p1
331.42 219.74 2.70 c p1
276.78 224.24 2.70 c p1
311.95 252.28 2.70 c p1
286.41 253.44 2.70 c p1
215.58 298.02 2.70 c p1
203.27 293.54 2.70 c p1
313.61 299.04 2.70 c p1
291.91 187.10 2.70 c p1
217.76 295.98 2.70 c p1
252.44 332.34 2.70 c p1
381.09 321.59 2.70 c p1
183.87 261.83 2.70 c p1
236.35 242.64 2.70 c p1
224.41 215.64 2.70 c p1
209.75 324.53 2.70 c p1
230.33 187.46 2.70 c p1
283.01 243.99 2.70 c p1
300.93 326.42 2.70 c p1
238.11 200.52 2.70 c p1
350.44 320.33 2.70 c p1
279.98 238.82 2.70 c p1
280.98 283.44 2.70 c p1
238.07 251.89 2.70 c p1
222.36 260.26 2.70 c p1
306.00 226.12 2.70 c p1
263.62 380.72 2.70 c p1
246.65 328.32 2.70 c p1
252.02 261.44 2.70 c p1
315.83 313.45 2.70 c p1
233.54 373.81 2.70 c p1
272.72 166.27 2.70 c p1
329.97 245.52 2.70 c p1
160.81 270.10 2.70 c p1
299.11 228.95 2.70 c p1
233.05 292.93 2.70 c p1
250.87 232.73 2.70 c p1
263.64 268.32 2.70 c p1
283.72 332.55 2.70 c p1
261.23 291.92 2.70 c p1
290.54 275.85 2.70 c p1
244.63 367.61 2.70 c p1
192.23 324.32 2.70 c p1
215.04 230.65 2.70 c p1
171.45 317.41 2.70 c p1
185.44 355.33 2.70 c p1
324.89 203.27 2.70 c p1
163.71 262.61 2.70 c p1
346.35 214.34 2.70 c p1
305.33 193.06 2.70 c p1
257.16 236.15 2.70 c p1
260.89 350.99 2.70 c p1
264.65 300.06 2.70 c p1
272.86 359.48 2.70 c p1
248.31 263.01 2.70 c p1
298.09 255.58 2.70 c p1
281.46 263.99 2.70 c p1
318.58 196.87 2.70 c p1
315.74 309.10 2.70 c p1
249.88 244.95 2.70 c p1
258.00 205.47 2.70 c p1
152.22 275.65 2.70 c p1
247.66 206.95 2.70 c p1
327.30 246.29 2.70 c p1
204.10 222.93 2.70 c p1
328.65 309.31 2.70 c p1
313.19 388.37 2.70 c p1
347.78 369.82 2.70 c p1
294.84 248.99 2.70 c p1
201.48 165.92 2.70 c p1
176.89 199.61 2.70 c p1
305.99 145.41 2.70 c p1
122.16 241.11 2.70 c p1
304.60 274.66 2.70 c p1
266.34 142.15 2.70 c p1
229.54 240.15 2.70 c p1
278.28 230.08 2.70 c p1
267.85 343.22 2.70 c p1
293.46 206.95 2.70 c p1
282.30 256.17 2.70 c p1
195.34 281.44 2.70 c p1
283.61 220.68 2.70 c p1
132.11 212.67 2.70 c p1
276.29 388.37 2.70 c p1
383.75 321.80 2.70 c p1
289.86 285.65 2.70 c p1
277.80 246.49 2.70 c p1
296.29 235.39 2.70 c p1
266.93 199.43 2.70 c p1
217.33 275.05 2.70 c p1
255.08 365.40 2.70 c p1
280.44 302.52 2.70 c p1
278.79 203.27 2.70 c p1
178.22 242.45 2.70 c p1
290.49 262.81 2.70 c p1
149.59 346.02 2.70 c p1
351.01 279.24 2.70 c p1
253.96 367.38 2.70 c p1
400.36 216.57 2.70 c p1
148.83 260.85 2.70 c p1
424.54 327.26 2.70 c p1
255.47 378.71 2.70 c p1
253.33 260.65 2.70 c p1
199.71 214.90 2.70 c p1
356.80 205.66 2.70 c p1
261.85 261.24 2.70 c p1
154.98 371.59 2.70 c p1
327.11 235.77 2.70 c p1
325.93 186.92 2.70 c p1
251.21 310.97 2.70 c p1
174.07 343.44 2.70 c p1
298.60 203.82 2.70 c p1
271.90 236.53 2.70 c p1
300.72 262.61 2.70 c p1
330.79 264.77 2.70 c p1
318.48 238.63 2.70 c p1
294.72 206.21 2.70 c p1
331.56 279.24 2.70 c p1
343.74 295.77 2.70 c p1
256.20 333.40 2.70 c p1
276.10 245.14 2.70 c p1
201.61 309.72 2.70 c p1
205.48 322.43 2.70 c p1
257.87 226.68 2.70 c p1
223.53 308.90 2.70 c p1
405.06 205.11 2.70 c p1
257.49 266.54 2.70 c p1
256.01 315.95 2.70 c p1
252.82 378.26 2.70 c p1
171.05 241.49 2.70 c p1
183.96 329.38 2.70 c p1
270.27 270.49 2.70 c p1
233.53 234.44 2.70 c p1
127.20 284.45 2.70 c p1
344.93 295.57 2.70 c p1
257.20 302.11 2.70 c p1
306.34 268.12 2.70 c p1
223.10 282.04 2.70 c p1
134.33 223.30 2.70 c p1
267.81 192.33 2.70 c p1
272.93 280.04 2.70 c p1
243.33 324.74 2.70 c p1
321.10 282.44 2.70 c p1
326.36 266.74 2.70 c p1
318.48 328.53 2.70 c p1
188.67 262.22 2.70 c p1
269.38 219.93 2.70 c p1
222.49 322.01 2.70 c p1
210.89 264.18 2.70 c p1
273.85 315.32 2.70 c p1
260.43 355.98 2.70 c p1
290.69 168.39 2.70 c p1
372.82 263.79 2.70 c p1
293.89 276.45 2.70 c p1
300.53 395.40 2.70 c p1
261.38 297.00 2.70 c p1
160.46 270.69 2.70 c p1
197.42 184.22 2.70 c p1
185.20 228.00 2.70 c p1
313.95 299.24 2.70 c p1
256.66 353.81 2.70 c p1
220.68 246.68 2.70 c p1
322.68 289.08 2.70 c p1
265.52 184.76 2.70 c p1
239.48 309.10 2.70 c p1
266.62 302.52 2.70 c p1
266.19 242.64 2.70 c p1
277.28 257.14 2.70 c p1
317.46 277.64 2.70 c p1
279.59 386.12 2.70 c p1
209.40 186.02 2.70 c p1
300.84 269.11 2.70 c p1
251.50 286.66 2.70 c p1
157.83 259.09 2.70 c p1
269.39 238.63 2.70 c p1
310.36 234.82 2.70 c p1
252.87 247.26 2.70 c p1
293.44 225.18 2.70 c p1
335.65 249.19 2.70 c p1
330.51 237.29 2.70 c p1
304.82 264.77 2.70 c p1
212.98 225.37 2.70 c p1
435.30 359.04 2.70 c p1
340.76 312.62 2.70 c p1
265.20 292.12 2.70 c p1
239.98 251.31 2.70 c p1
192.61 287.06 2.70 c p1
167.92 233.68 2.70 c p1
304.41 141.81 2.70 c p1
247.66 275.65 2.70 c p1
377.33 204.92 2.70 c p1
270.64 233.11 2.70 c p1
225.06 218.62 2.70 c p1
235.66 192.51 2.70 c p1
278.65 233.87 2.70 c p1
266.60 275.45 2.70 c p1
255.69 332.98 2.70 c p1
292.15 334.68 2.70 c p1
247.92 265.17 2.70 c p1
389.76 338.09 2.70 c p1
229.39 310.14 2.70 c p1
186.99 247.45 2.70 c p1
211.17 310.55 2.70 c p1
283.22 230.08 2.70 c p1
319.29 314.91 2.70 c p1
223.05 212.12 2.70 c p1
348.40 235.20 2.70 c p1
292.83 237.67 2.70 c p1
290.28 280.04 2.70 c p1
239.69 253.06 2.70 c p1
237.23 332.98 2.70 c p1
130.44 211.75 2.70 c p1
309.17 280.44 2.70 c p1
269.19 324.32 2.70 c p1
292.02 232.35 2.70 c p1
251.24 170.68 2.70 c p1
325.65 268.91 2.70 c p1
293.35 358.82 2.70 c p1
317.65 340.44 2.70 c p1
227.42 304.57 2.70 c p1
266.27 282.84 2.70 c p1
336.76 257.92 2.70 c p1
222.17 261.63 2.70 c p1
242.43 188.36 2.70 c p1
282.64 334.46 2.70 c p1
197.45 312.83 2.70 c p1
218.89 154.22 2.70 c p1
243.27 264.18 2.70 c p1
289.35 229.70 2.70 c p1
239.34 205.84 2.70 c p1
283.47 250.15 2.70 c p1
306.56 268.52 2.70 c p1
286.71 267.13 2.70 c p1
372.23 243.99 2.70 c p1
377.97 285.25 2.70 c p1
274.38 296.38 2.70 c p1
205.47 349.47 2.70 c p1
239.98 298.02 2.70 c p1
101.36 298.63 2.70 c p1
326.96 316.16 2.70 c p1
247.89 266.15 2.70 c p1
250.54 170.68 2.70 c p1
204.94 307.04 2.70 c p1
203.82 356.86 2.70 c p1
243.79 322.64 2.70 c p1
229.81 285.86 2.70 c p1
233.98 256.36 2.70 c p1
223.01 246.49 2.70 c p1
176.62 287.67 2.70 c p1
291.24 304.57 2.70 c p1
254.38 232.73 2.70 c p1
343.65 324.74 2.70 c p1
115.32 264.97 2.70 c p1
232.87 279.64 2.70 c p1
288.64 318.03 2.70 c p1
258.74 212.12 2.70 c p1
326.33 264.18 2.70 c p1
326.38 292.73 2.70 c p1
208.43 318.66 2.70 c p1
235.76 365.62 2.70 c p1
300.58 280.44 2.70 c p1
308.78 307.87 2.70 c p1
229.05 201.62 2.70 c p1
315.87 260.26 2.70 c p1
310.19 256.36 2.70 c p1
188.84 217.13 2.70 c p1
291.04 291.71 2.70 c p1
250.42 143.35 2.70 c p1
304.26 289.49 2.70 c p1
268.59 217.13 2.70 c p1
222.06 235.58 2.70 c p1
171.78 336.38 2.70 c p1
383.94 310.34 2.70 c p1
283.50 216.20 2.70 c p1
156.06 321.17 2.70 c p1
251.48 324.53 2.70 c p1
261.35 371.59 2.70 c p1
299.53 237.48 2.70 c p1
271.91 194.33 2.70 c p1
253.06 342.15 2.70 c p1
192.90 299.04 2.70 c p1
298.22 267.13 2.70 c p1
288.93 300.26 2.70 c p1
218.45 210.82 2.70 c p1
288.97 231.40 2.70 c p1
253.38 193.78 2.70 c p1
218.52 357.51 2.70 c p1
274.60 257.14 2.70 c p1
345.42 256.17 2.70 c p1
217.44 274.66 2.70 c p1
337.34 306.22 2.70 c p1
285.59 394.95 2.70 c p1
311.82 160.14 2.70 c p1
234.37 289.08 2.70 c p1
210.53 314.08 2.70 c p1
304.00 235.96 2.70 c p1
276.17 228.95 2.70 c p1
304.52 398.37 2.70 c p1
349.02 276.45 2.70 c p1
173.02 298.83 2.70 c p1
269.06 292.93 2.70 c p1
324.14 247.45 2.70 c p1
239.76 220.87 2.70 c p1
205.40 231.40 2.70 c p1
324.23 332.13 2.70 c p1
223.25 245.91 2.70 c p1
225.11 290.30 2.70 c p1
231.37 275.05 2.70 c p1
366.86 143.01 2.70 c p1
229.26 346.88 2.70 c p1
296.48 292.52 2.70 c p1
180.94 277.24 2.70 c p1
254.14 278.24 2.70 c p1
313.38 316.99 2.70 c p1
210.51 273.27 2.70 c p1
345.94 240.15 2.70 c p1
308.82 247.64 2.70 c p1
242.71 264.18 2.70 c p1
280.88 358.38 2.70 c p1
328.21 359.91 2.70 c p1
198.31 273.86 2.70 c p1
313.14 284.65 2.70 c p1
190.62 259.87 2.70 c p1
331.19 281.24 2.70 c p1
367.33 328.53 2.70 c p1
312.83 134.99 2.70 c p1
251.70 303.75 2.70 c p1
383.21 286.26 2.70 c p1
313.60 303.54 2.70 c p1
253.09 143.69 2.70 c p1
217.55 262.42 2.70 c p1
284.66 342.80 2.70 c p1
201.53 217.50 2.70 c p1
288.65 356.42 2.70 c p1
241.76 292.12 2.70 c p1
300.98 175.29 2.70 c p1
276.83 218.25 2.70 c p1
310.47 304.16 2.70 c p1
336.15 218.81 2.70 c p1
235.98 316.37 2.70 c p1
260.94 284.25 2.70 c p1
255.74 148.34 2.70 c p1
361.75 238.24 2.70 c p1
205.04 286.86 2.70 c p1
274.39 209.53 2.70 c p1
247.23 319.29 2.70 c p1
367.29 326.21 2.70 c p1
283.16 362.76 2.70 c p1
201.53 296.59 2.70 c p1
270.63 328.53 2.70 c p1
274.72 225.18 2.70 c p1
278.76 283.04 2.70 c p1
301.21 285.45 2.70 c p1
326.74 311.79 2.70 c p1
274.41 213.23 2.70 c p1
268.16 267.13 2.70 c p1
250.80 271.08 2.70 c p1
308.76 241.11 2.70 c p1
206.71 253.83 2.70 c p1
245.44 192.33 2.70 c p1
348.69 276.25 2.70 c p1
234.86 250.35 2.70 c p1
349.88 298.02 2.70 c p1
291.41 291.51 2.70 c p1
230.66 292.73 2.70 c p1
215.11 317.20 2.70 c p1
191.67 196.87 2.70 c p1
214.44 259.48 2.70 c p1
198.50 202.90 2.70 c p1
325.97 263.01 2.70 c p1
330.31 187.46 2.70 c p1
248.63 317.62 2.70 c p1
234.26 288.27 2.70 c p1
246.83 238.82 2.70 c p1
285.89 335.74 2.70 c p1
259.78 165.39 2.70 c p1
227.71 163.11 2.70 c p1
216.72 285.45 2.70 c p1
364.14 281.04 2.70 c p1
272.24 251.31 2.70 c p1
108.40 267.13 2.70 c p1
385.02 321.38 2.70 c p1
259.99 298.42 2.70 c p1
293.25 297.61 2.70 c p1
257.51 357.29 2.70 c p1
329.52 322.22 2.70 c p1
205.95 330.43 2.70 c p1
232.83 341.94 2.70 c p1
312.29 207.50 2.70 c p1
268.35 250.54 2.70 c p1
227.40 261.05 2.70 c p1
294.08 216.39 2.70 c p1
415.80 198.51 2.70 c p1
290.38 243.22 2.70 c p1
214.98 259.29 2.70 c p1
338.85 152.14 2.70 c p1
237.07 408.94 2.70 c p1
142.93 334.04 2.70 c p1
272.82 221.80 2.70 c p1
340.30 312.62 2.70 c p1
348.11 190.34 2.70 c p1
247.92 263.01 2.70 c p1
273.67 279.64 2.70 c p1
396.47 355.55 2.70 c p1
397.07 325.16 2.70 c p1
274.53 344.73 2.70 c p1
326.54 322.64 2.70 c p1
296.11 292.32 2.70 c p1
303.28 227.06 2.70 c p1
225.34 358.82 2.70 c p1
325.91 177.78 2.70 c p1
293.47 263.59 2.70 c p1
272.35 298.02 2.70 c p1
304.90 309.10 2.70 c p1
221.23 244.37 2.70 c p1
210.13 263.01 2.70 c p1
240.18 151.44 2.70 c p1
223.38 273.66 2.70 c p1
344.39 204.37 2.70 c p1
387.19 299.45 2.70 c p1
262.48 304.78 2.70 c p1
336.08 261.05 2.70 c p1
187.22 236.53 2.70 c p1
203.97 277.44 2.70 c p1
97.20 304.78 2.70 c p1
212.20 220.12 2.70 c p1
285.33 199.97 2.70 c p1
287.16 298.83 2.70 c p1
285.97 385.44 2.70 c p1
244.76 283.24 2.70 c p1
292.57 313.25 2.70 c p1
207.25 243.79 2.70 c p1
328.27 295.16 2.70 c p1
286.27 263.01 2.70 c p1
326.28 300.47 2.70 c p1
329.63 262.81 2.70 c p1
252.35 334.04 2.70 c p1
338.18 217.88 2.70 c p1
319.86 242.45 2.70 c p1
314.11 231.03 2.70 c p1
194.94 303.54 2.70 c p1
302.00 312.21 2.70 c p1
252.87 223.68 2.70 c p1
263.10 257.53 2.70 c p1
254.03 211.56 2.70 c p1
449.09 204.37 2.70 c p1
261.36 331.70 2.70 c p1
350.72 280.84 2.70 c p1
285.21 202.54 2.70 c p1
251.65 247.26 2.70 c p1
311.52 280.84 2.70 c p1
230.07 336.81 2.70 c p1
304.58 298.63 2.70 c p1
263.71 298.02 2.70 c p1
253.58 249.57 2.70 c p1
332.08 243.22 2.70 c p1
235.64 224.99 2.70 c p1
254.53 351.42 2.70 c p1
394.36 330.86 2.70 c p1
258.31 281.24 2.70 c p1
184.65 204.37 2.70 c p1
243.81 292.32 2.70 c p1
321.61 189.80 2.70 c p1
193.21 232.73 2.70 c p1
238.56 216.02 2.70 c p1
350.67 282.84 2.70 c p1
391.59 400.20 2.70 c p1
206.16 335.10 2.70 c p1
232.40 182.25 2.70 c p1
337.12 349.69 2.70 c p1
409.09 334.68 2.70 c p1
161.05 215.27 2.70 c p1
233.45 331.28 2.70 c p1
283.67 352.29 2.70 c p1
211.18 339.37 2.70 c p1
203.12 194.15 2.70 c p1
202.40 275.85 2.70 c p1
201.27 307.25 2.70 c p1
176.28 268.32 2.70 c p1
263.81 219.56 2.70 c p1
252.83 289.49 2.70 c p1
211.99 296.38 2.70 c p1
327.29 229.13 2.70 c p1
197.48 224.05 2.70 c p1
296.04 247.83 2.70 c p1
344.53 336.38 2.70 c p1
284.09 353.37 2.70 c p1
177.69 326.84 2.70 c p1
221.12 209.34 2.70 c p1
274.06 202.35 2.70 c p1
310.15 201.80 2.70 c p1
224.64 223.49 2.70 c p1
180.66 308.07 2.70 c p1
386.90 350.99 2.70 c p1
282.21 246.10 2.70 c p1
205.99 327.48 2.70 c p1
216.31 266.74 2.70 c p1
407.03 309.72 2.70 c p1
271.56 277.24 2.70 c p1
301.30 296.38 2.70 c p1
326.59 258.11 2.70 c p1
190.19 295.16 2.70 c p1
340.42 304.36 2.70 c p1
194.41 240.35 2.70 c p1
236.25 287.27 2.70 c p1
336.32 318.87 2.70 c p1
368.91 336.38 2.70 c p1
284.90 351.42 2.70 c p1
255.19 220.87 2.70 c p1
223.98 302.11 2.70 c p1
240.17 322.22 2.70 c p1
263.36 311.59 2.70 c p1
301.08 125.53 2.70 c p1
240.41 208.24 2.70 c p1
340.87 180.82 2.70 c p1
219.84 303.13 2.70 c p1
175.47 361.45 2.70 c p1
311.01 293.94 2.70 c p1
227.30 284.25 2.70 c p1
287.25 317.41 2.70 c p1
177.65 310.14 2.70 c p1
188.58 308.07 2.70 c p1
261.31 228.76 2.70 c p1
327.22 320.54 2.70 c p1
153.37 287.87 2.70 c p1
381.09 343.44 2.70 c p1
282.22 324.95 2.70 c p1
270.90 284.05 2.70 c p1
265.60 368.93 2.70 c p1
313.55 281.84 2.70 c p1
190.54 275.05 2.70 c p1
287.93 361.01 2.70 c p1
354.50 266.74 2.70 c p1
304.04 322.43 2.70 c p1
264.65 277.04 2.70 c p1
195.26 172.98 2.70 c p1
247.84 282.84 2.70 c p1
305.86 343.44 2.70 c p1
307.81 199.97 2.70 c p1
280.01 190.16 2.70 c p1
295.70 170.33 2.70 c p1
403.94 166.80 2.70 c p1
351.26 303.75 2.70 c p1
295.92 264.97 2.70 c p1
230.25 298.63 2.70 c p1
346.11 253.44 2.70 c p1
184.53 281.64 2.70 c p1
357.83 296.59 2.70 c p1
301.89 192.88 2.70 c p1
255.41 269.70 2.70 c p1
211.15 272.47 2.70 c p1
229.41 282.04 2.70 c p1
335.24 274.46 2.70 c p1
178.90 257.53 2.70 c p1
322.07 329.17 2.70 c p1
260.85 337.23 2.70 c p1
252.93 226.87 2.70 c p1
273.21 349.69 2.70 c p1
297.78 323.06 2.70 c p1
255.47 219.37 2.70 c p1
352.35 246.49 2.70 c p1
363.20 204.92 2.70 c p1
229.61 205.47 2.70 c p1
226.41 305.80 2.70 c p1
185.70 198.70 2.70 c p1
223.30 305.39 2.70 c p1
332.27 218.25 2.70 c p1
256.62 204.00 2.70 c p1
143.70 208.97 2.70 c p1
217.60 264.77 2.70 c p1
292.29 244.75 2.70 c p1
313.96 252.67 2.70 c p1
370.11 277.84 2.70 c p1
187.72 314.70 2.70 c p1
211.98 271.28 2.70 c p1
312.60 214.71 2.70 c p1
359.88 229.13 2.70 c p1
261.38 232.73 2.70 c p1
341.19 188.36 2.70 c p1
194.10 257.53 2.70 c p1
220.57 204.19 2.70 c p1
245.79 126.71 2.70 c p1
156.02 209.34 2.70 c p1
264.43 284.65 2.70 c p1
277.37 242.84 2.70 c p1
206.38 290.90 2.70 c p1
255.84 268.71 2.70 c p1
222.23 217.69 2.70 c p1
193.86 285.05 2.70 c p1
228.75 185.30 2.70 c p1
364.06 260.65 2.70 c p1
312.66 319.50 2.70 c p1
200.79 274.06 2.70 c p1
285.27 225.37 2.70 c p1
254.11 274.46 2.70 c p1
302.83 285.86 2.70 c p1
237.92 224.80 2.70 c p1
326.97 391.31 2.70 c p1
187.83 230.84 2.70 c p1
293.82 350.56 2.70 c p1
197.44 295.77 2.70 c p1
274.55 282.24 2.70 c p1
259.98 239.96 2.70 c p1
274.82 204.74 2.70 c p1
334.56 265.17 2.70 c p1
247.50 253.06 2.70 c p1
240.84 310.34 2.70 c p1
252.75 260.26 2.70 c p1
141.11 351.86 2.70 c p1
304.42 233.30 2.70 c p1
277.72 308.69 2.70 c p1
253.82 316.37 2.70 c p1
279.05 255.58 2.70 c p1
289.78 297.00 2.70 c p1
305.03 319.91 2.70 c p1
347.22 262.42 2.70 c p1
329.47 127.38 2.70 c p1
258.35 283.04 2.70 c p1
239.26 163.46 2.70 c p1
249.40 216.76 2.70 c p1
233.01 273.86 2.70 c p1
282.41 128.56 2.70 c p1
324.96 316.57 2.70 c p1
262.31 328.11 2.70 c p1
241.40 274.06 2.70 c p1
291.93 226.31 2.70 c p1
225.12 269.70 2.70 c p1
306.03 310.55 2.70 c p1
289.93 285.05 2.70 c p1
243.62 219.00 2.70 c p1
303.04 307.45 2.70 c p1
261.88 218.44 2.70 c p1
244.91 213.97 2.70 c p1
227.37 193.42 2.70 c p1
246.90 181.89 2.70 c p1
265.38 304.98 2.70 c p1
263.70 342.15 2.70 c p1
301.67 376.48 2.70 c p1
186.37 322.85 2.70 c p1
317.24 217.88 2.70 c p1
279.77 216.95 2.70 c p1
277.14 272.27 2.70 c p1
353.60 229.13 2.70 c p1
214.24 244.75 2.70 c p1
421.52 386.79 2.70 c p1
195.41 275.85 2.70 c p1
303.52 234.44 2.70 c p1
224.47 156.82 2.70 c p1
273.96 209.16 2.70 c p1
357.60 219.18 2.70 c p1
247.26 153.87 2.70 c p1
241.04 297.00 2.70 c p1
216.79 173.51 2.70 c p1
170.61 245.72 2.70 c p1
394.27 281.84 2.70 c p1
224.77 255.78 2.70 c p1
357.10 282.24 2.70 c p1
285.54 326.21 2.70 c p1
295.55 285.25 2.70 c p1
300.72 259.87 2.70 c p1
341.86 200.16 2.70 c p1
225.74 187.82 2.70 c p1
218.06 316.99 2.70 c p1
288.51 225.55 2.70 c p1
199.94 217.50 2.70 c p1
327.45 240.35 2.70 c p1
315.31 196.69 2.70 c p1
238.31 365.18 2.70 c p1
347.16 227.06 2.70 c p1
369.37 229.51 2.70 c p1
288.77 273.27 2.70 c p1
322.01 283.24 2.70 c p1
314.55 327.69 2.70 c p1
248.90 264.97 2.70 c p1
281.57 247.26 2.70 c p1
262.56 194.33 2.70 c p1
278.65 302.93 2.70 c p1
245.29 245.72 2.70 c p1
349.28 235.96 2.70 c p1
204.94 439.76 2.70 c p1
190.12 247.83 2.70 c p1
343.92 287.06 2.70 c p1
274.05 233.30 2.70 c p1
355.54 241.88 2.70 c p1
191.61 329.80 2.70 c p1
326.26 294.15 2.70 c p1
336.39 273.46 2.70 c p1
292.42 429.76 2.70 c p1
322.09 349.91 2.70 c p1
316.13 248.61 2.70 c p1
255.35 240.35 2.70 c p1
308.08 331.70 2.70 c p1
331.42 281.44 2.70 c p1
346.97 220.12 2.70 c p1
276.10 198.33 2.70 c p1
367.95 330.86 2.70 c p1
429.94 240.15 2.70 c p1
266.02 275.05 2.70 c p1
230.67 251.51 2.70 c p1
276.67 248.80 2.70 c p1
338.05 245.14 2.70 c p1
340.93 310.14 2.70 c p1
253.91 326.21 2.70 c p1
369.33 300.26 2.70 c p1
285.90 271.88 2.70 c p1
323.07 215.27 2.70 c p1
388.67 208.42 2.70 c p1
338.46 127.89 2.70 c p1
238.91 257.33 2.70 c p1
285.01 248.03 2.70 c p1
221.09 290.90 2.70 c p1
224.46 221.24 2.70 c p1
354.51 347.53 2.70 c p1
317.36 328.95 2.70 c p1
223.37 278.64 2.70 c p1
316.97 267.53 2.70 c p1
371.99 246.68 2.70 c p1
251.92 196.69 2.70 c p1
199.42 252.48 2.70 c p1
335.63 232.73 2.70 c p1
283.59 222.93 2.70 c p1
302.78 223.49 2.70 c p1
333.08 340.87 2.70 c p1
261.73 253.83 2.70 c p1
385.38 259.09 2.70 c p1
224.80 315.12 2.70 c p1
256.55 312.62 2.70 c p1
254.79 230.08 2.70 c p1
243.61 265.95 2.70 c p1
265.45 229.32 2.70 c p1
141.98 180.28 2.70 c p1
207.78 223.68 2.70 c p1
292.23 280.64 2.70 c p1
259.88 394.49 2.70 c p1
201.09 406.17 2.70 c p1
373.69 257.72 2.70 c p1
269.26 290.30 2.70 c p1
219.70 205.47 2.70 c p1
300.66 302.93 2.70 c p1
210.02 293.94 2.70 c p1
308.28 232.92 2.70 c p1
237.94 255.78 2.70 c p1
238.17 213.79 2.70 c p1
294.82 314.08 2.70 c p1
257.99 224.99 2.70 c p1
304.80 286.06 2.70 c p1
381.62 234.44 2.70 c p1
334.14 340.22 2.70 c p1
255.69 237.67 2.70 c p1
255.47 280.44 2.70 c p1
373.49 231.40 2.70 c p1
363.19 207.13 2.70 c p1
259.89 245.72 2.70 c p1
310.16 371.59 2.70 c p1
239.85 249.19 2.70 c p1
261.38 291.92 2.70 c p1
269.52 311.79 2.70 c p1
310.17 211.56 2.70 c p1
273.93 295.37 2.70 c p1
213.39 275.85 2.70 c p1
331.87 181.89 2.70 c p1
293.17 286.86 2.70 c p1
258.98 321.17 2.70 c p1
371.68 272.47 2.70 c p1
304.02 263.79 2.70 c p1
347.37 318.87 2.70 c p1
325.55 390.63 2.70 c p1
238.04 227.44 2.70 c p1
274.37 273.86 2.70 c p1
278.80 318.45 2.70 c p1
290.14 373.81 2.70 c p1
311.77 375.14 2.70 c p1
291.04 339.58 2.70 c p1
299.89 273.07 2.70 c p1
265.51 221.05 2.70 c p1
349.83 284.45 2.70 c p1
365.22 328.74 2.70 c p1
404.06 304.57 2.70 c p1
201.67 347.31 2.70 c p1
281.79 307.87 2.70 c p1
215.06 291.10 2.70 c p1
179.65 260.26 2.70 c p1
133.74 162.41 2.70 c p1
281.66 272.47 2.70 c p1
240.42 335.53 2.70 c p1
342.00 277.04 2.70 c p1
254.27 245.91 2.70 c p1
175.72 258.70 2.70 c p1
256.81 257.53 2.70 c p1
170.36 378.04 2.70 c p1
237.57 280.24 2.70 c p1
0.00 0.00 503.25 530.71 cl
0 0 0 srgb
0.75 setlinewidth
[] 0 setdash
1 setlinecap
1 setlinejoin
10.00 setmiterlimit
np
88.07 73.44 m
351.18 0 l
o
np
88.07 73.44 m
0 -7.20 l
o
np
175.87 73.44 m
0 -7.20 l
o
np
263.66 73.44 m
0 -7.20 l
o
np
351.46 73.44 m
0 -7.20 l
o
np
439.25 73.44 m
0 -7.20 l
o
/Font1 findfont 12 s
88.07 47.52 (98) .5 0 t
175.87 47.52 (99) .5 0 t
263.66 47.52 (100) .5 0 t
351.46 47.52 (101) .5 0 t
439.25 47.52 (102) .5 0 t
np
59.04 91.75 m
0 356.17 l
o
np
59.04 91.75 m
-7.20 0 l
o
np
59.04 156.29 m
-7.20 0 l
o
np
59.04 218.58 m
-7.20 0 l
o
np
59.04 278.75 m
-7.20 0 l
o
np
59.04 336.95 m
-7.20 0 l
o
np
59.04 393.30 m
-7.20 0 l
o
np
59.04 447.92 m
-7.20 0 l
o
41.76 91.75 (13.5) .5 90 t
41.76 156.29 (14.0) .5 90 t
41.76 218.58 (14.5) .5 90 t
41.76 278.75 (15.0) .5 90 t
41.76 336.95 (15.5) .5 90 t
41.76 393.30 (16.0) .5 90 t
41.76 447.92 (16.5) .5 90 t
np
 59.04 73.44 m
413.97 0 l
0 398.23 l
-413.97 0 l
cp p1
0.00 0.00 503.25 530.71 cl
/Font2 findfont 14 s
0 0 0 srgb
235.30 496.17 (P) 0 ta
-0.560 (osterior) tb gr
/Font1 findfont 18 s
253.52 18.72 (m) 0 ta
-0.180 (u) tb gr
12.96 272.56 (sigma) .5 90 t
59.04 73.44 473.01 471.67 cl
/Font1 findfont 24 s
0 0 0 srgb
268.35 262.78 (+) .5 0 t
/Font1 findfont 12 s
238.32 273.40 (100.1) 0 0 t
268.35 273.40 (  ) 0 0 t
275.02 273.40 (14.9) 0 0 t
ep
%%Trailer
%%Pages: 1
%%EOF
