%!PS-Adobe-3.0 EPSF-3.0
%%DocumentNeededResources: font Helvetica
%%+ font Helvetica-Bold
%%+ font Helvetica-Oblique
%%+ font Helvetica-BoldOblique
%%+ font Symbol
%%Title: R Graphics Output
%%Creator: R Software
%%Pages: (atend)
%%BoundingBox: 0 0 503 531
%%EndComments
%%BeginProlog
/bp  { gs sRGB gs } def
% begin .ps.prolog
/gs  { gsave } bind def
/gr  { grestore } bind def
/ep  { showpage gr gr } bind def
/m   { moveto } bind def
/l  { rlineto } bind def
/np  { newpath } bind def
/cp  { closepath } bind def
/f   { fill } bind def
/o   { stroke } bind def
/c   { newpath 0 360 arc } bind def
/r   { 4 2 roll moveto 1 copy 3 -1 roll exch 0 exch rlineto 0 rlineto -1 mul 0 exch rlineto closepath } bind def
/p1  { stroke } bind def
/p2  { gsave bg fill grestore newpath } bind def
/p3  { gsave bg fill grestore stroke } bind def
/p6  { gsave bg eofill grestore newpath } bind def
/p7  { gsave bg eofill grestore stroke } bind def
/t   { 5 -2 roll moveto gsave rotate
       1 index stringwidth pop
       mul neg 0 rmoveto show grestore } bind def
/ta  { 4 -2 roll moveto gsave rotate show } bind def
/tb  { 2 -1 roll 0 rmoveto show } bind def
/cl  { grestore gsave newpath 3 index 3 index moveto 1 index
       4 -1 roll lineto  exch 1 index lineto lineto
       closepath clip newpath } bind def
/rgb { setrgbcolor } bind def
/s   { scalefont setfont } bind def
% end   .ps.prolog
/sRGB { [ /CIEBasedABC
          << /DecodeLMN
               [ { dup 0.03928 le
                        {12.92321 div}
                        {0.055 add 1.055 div 2.4 exp }
                     ifelse
                 } bind dup dup
               ]
             /MatrixLMN [0.412457 0.212673 0.019334
                         0.357576 0.715152 0.119192
                         0.180437 0.072175 0.950301]
             /WhitePoint [0.9505 1.0 1.0890]
           >>
         ] setcolorspace } bind def
/srgb { setcolor } bind def
%%IncludeResource: font Helvetica
/Helvetica findfont
dup length dict begin
  {1 index /FID ne {def} {pop pop} ifelse} forall
  /Encoding ISOLatin1Encoding def
  currentdict
  end
/Font1 exch definefont pop
%%IncludeResource: font Helvetica-Bold
/Helvetica-Bold findfont
dup length dict begin
  {1 index /FID ne {def} {pop pop} ifelse} forall
  /Encoding ISOLatin1Encoding def
  currentdict
  end
/Font2 exch definefont pop
%%IncludeResource: font Helvetica-Oblique
/Helvetica-Oblique findfont
dup length dict begin
  {1 index /FID ne {def} {pop pop} ifelse} forall
  /Encoding ISOLatin1Encoding def
  currentdict
  end
/Font3 exch definefont pop
%%IncludeResource: font Helvetica-BoldOblique
/Helvetica-BoldOblique findfont
dup length dict begin
  {1 index /FID ne {def} {pop pop} ifelse} forall
  /Encoding ISOLatin1Encoding def
  currentdict
  end
/Font4 exch definefont pop
%%IncludeResource: font Symbol
/Symbol findfont
dup length dict begin
  {1 index /FID ne {def} {pop pop} ifelse} forall
  currentdict
  end
/Font5 exch definefont pop
%%EndProlog
%%Page: 1 1
bp
0.00 0.00 503.25 530.71 cl
/Font2 findfont 14 s
0 0 0 srgb
235.29 496.17 (P) 0 ta
-0.560 (osterior) tb gr
/Font1 findfont 18 s
253.52 18.72 (m) 0 ta
-0.180 (u) tb gr
0.75 setlinewidth
[] 0 setdash
1 setlinecap
1 setlinejoin
10.00 setmiterlimit
np
111.94 73.44 m
311.77 0 l
o
np
111.94 73.44 m
0 -7.20 l
o
np
189.88 73.44 m
0 -7.20 l
o
np
267.82 73.44 m
0 -7.20 l
o
np
345.76 73.44 m
0 -7.20 l
o
np
423.71 73.44 m
0 -7.20 l
o
/Font1 findfont 12 s
111.94 47.52 (98) .5 0 t
189.88 47.52 (99) .5 0 t
267.82 47.52 (100) .5 0 t
345.76 47.52 (101) .5 0 t
423.71 47.52 (102) .5 0 t
/bg { 0.5294 0.8078 0.9216 srgb } def
1 1 1 srgb
65.18 88.19 15.59 0.50 r p3
80.76 88.19 15.59 0.00 r p3
96.35 88.19 15.59 2.48 r p3
111.94 88.19 15.59 7.43 r p3
127.53 88.19 15.59 12.89 r p3
143.12 88.19 15.59 16.36 r p3
158.70 88.19 15.59 42.13 r p3
174.29 88.19 15.59 71.37 r p3
189.88 88.19 15.59 141.25 r p3
205.47 88.19 15.59 171.48 r p3
221.06 88.19 15.59 262.67 r p3
236.65 88.19 15.59 325.12 r p3
252.23 88.19 15.59 341.48 r p3
267.82 88.19 15.59 368.74 r p3
283.41 88.19 15.59 324.13 r p3
299.00 88.19 15.59 283.49 r p3
314.59 88.19 15.59 205.68 r p3
330.18 88.19 15.59 175.45 r p3
345.76 88.19 15.59 101.10 r p3
361.35 88.19 15.59 54.02 r p3
376.94 88.19 15.59 35.19 r p3
392.53 88.19 15.59 18.34 r p3
408.12 88.19 15.59 7.93 r p3
423.71 88.19 15.59 2.97 r p3
439.29 88.19 15.59 0.99 r p3
454.88 88.19 15.59 0.50 r p3
/Font1 findfont 17 s
0 0 0 srgb
227.95 420.37 (m) 0 0 t
242.11 420.37 (e) 0 0 t
251.56 420.37 (a) 0 0 t
261.01 420.37 (n) 0 0 t
/Font5 findfont 17 s
274.40 420.37 (=) 0 0 t
/Font1 findfont 17 s
287.66 420.37 (100) 0 0 t
3.00 setlinewidth
[] 0 setdash
np
168.83 88.19 m
201.49 0 l
o
235.57 109.81 (95) 0 0 t
254.47 109.81 (% HDI) 0 0 t
168.83 94.29 (98.7) 0.70 0 t
370.32 94.29 (101) 0.30 0 t
ep
%%Trailer
%%Pages: 1
%%EOF
